Varies per block?       ,1,Unit    ,$/MWh,5,1,2021
Varies per sequence?    ,1,,,,,
# of agents             ,2,,,,,
Stag,Scn.,Blck,VR 2 - 1,VR 2 - 2,,
1,1,1,22,14,,
1,2,1,22,14,,
1,3,1,22,14,,
1,4,1,22,14,,
1,5,1,22,14,,
1,6,1,22,14,,
1,7,1,22,14,,
