Varies per block?       ,1,Unit    ,MWh,5,1,2021
Varies per sequence?    ,1,,,,,
# of agents             ,2,,,,,
Stag,Scn.,Blck,VR 1 - 1,VR 1 - 2,,
1,1,1,50,200,,
1,2,1,50,200,,
1,3,1,50,200,,
1,4,1,50,200,,
1,5,1,50,200,,
1,6,1,50,200,,
1,7,1,50,200,,
