Varies per block?       ,    1,Unit    ,   m3/s,     5,     1,  2021  
Varies per sequence?    ,    1                                        
# of agents             ,    1                                        
Stag,Seq.,Blck,Hidro 1                                                
   1,   1,   1,           0                                           
   1,   1,   2,           0                                           
   1,   1,   3,           0                                           
   1,   1,   4,           0                                           
   1,   1,   5,           0                                           
   1,   1,   6,           0                                           
   1,   1,   7,           0                                           
   1,   1,   8,           0                                           
   1,   1,   9,           0                                           
   1,   1,  10,           0                                           
   1,   1,  11,           0                                           
   1,   1,  12,           0                                           
   1,   1,  13,           0                                           
   1,   1,  14,           0                                           
   1,   1,  15,           0                                           
   1,   1,  16,           0                                           
   1,   1,  17,           0                                           
   1,   1,  18,           0                                           
   1,   1,  19,           0                                           
   1,   1,  20,           0                                           
   1,   1,  21,           0                                           
   1,   1,  22,           0                                           
   1,   1,  23,           0                                           
   1,   1,  24,           0                                           
   2,   1,   1,           0                                           
   2,   1,   2,           0                                           
   2,   1,   3,           0                                           
   2,   1,   4,           0                                           
   2,   1,   5,           0                                           
   2,   1,   6,           0                                           
   2,   1,   7,           0                                           
   2,   1,   8,           0                                           
   2,   1,   9,           0                                           
   2,   1,  10,           0                                           
   2,   1,  11,           0                                           
   2,   1,  12,           0                                           
   2,   1,  13,           0                                           
   2,   1,  14,           0                                           
   2,   1,  15,           0                                           
   2,   1,  16,           0                                           
   2,   1,  17,           0                                           
   2,   1,  18,           0                                           
   2,   1,  19,           0                                           
   2,   1,  20,           0                                           
   2,   1,  21,           0                                           
   2,   1,  22,           0                                           
   2,   1,  23,           0                                           
   2,   1,  24,           0                                           
   3,   1,   1,           0                                           
   3,   1,   2,           0                                           
   3,   1,   3,           0                                           
   3,   1,   4,           0                                           
   3,   1,   5,           0                                           
   3,   1,   6,           0                                           
   3,   1,   7,           0                                           
   3,   1,   8,           0                                           
   3,   1,   9,           0                                           
   3,   1,  10,           0                                           
   3,   1,  11,           0                                           
   3,   1,  12,           0                                           
   3,   1,  13,           0                                           
   3,   1,  14,           0                                           
   3,   1,  15,           0                                           
   3,   1,  16,           0                                           
   3,   1,  17,           0                                           
   3,   1,  18,           0                                           
   3,   1,  19,           0                                           
   3,   1,  20,           0                                           
   3,   1,  21,           0                                           
   3,   1,  22,           0                                           
   3,   1,  23,           0                                           
   3,   1,  24,           0                                           
   4,   1,   1,           0                                           
   4,   1,   2,           0                                           
   4,   1,   3,           0                                           
   4,   1,   4,           0                                           
   4,   1,   5,           0                                           
   4,   1,   6,           0                                           
   4,   1,   7,           0                                           
   4,   1,   8,           0                                           
   4,   1,   9,           0                                           
   4,   1,  10,           0                                           
   4,   1,  11,           0                                           
   4,   1,  12,           0                                           
   4,   1,  13,           0                                           
   4,   1,  14,           0                                           
   4,   1,  15,           0                                           
   4,   1,  16,           0                                           
   4,   1,  17,           0                                           
   4,   1,  18,           0                                           
   4,   1,  19,           0                                           
   4,   1,  20,           0                                           
   4,   1,  21,           0                                           
   4,   1,  22,           0                                           
   4,   1,  23,           0                                           
   4,   1,  24,           0                                           
   5,   1,   1,           0                                           
   5,   1,   2,           0                                           
   5,   1,   3,           0                                           
   5,   1,   4,           0                                           
   5,   1,   5,           0                                           
   5,   1,   6,           0                                           
   5,   1,   7,           0                                           
   5,   1,   8,           0                                           
   5,   1,   9,           0                                           
   5,   1,  10,           0                                           
   5,   1,  11,           0                                           
   5,   1,  12,           0                                           
   5,   1,  13,           0                                           
   5,   1,  14,           0                                           
   5,   1,  15,           0                                           
   5,   1,  16,           0                                           
   5,   1,  17,           0                                           
   5,   1,  18,           0                                           
   5,   1,  19,           0                                           
   5,   1,  20,           0                                           
   5,   1,  21,           0                                           
   5,   1,  22,           0                                           
   5,   1,  23,           0                                           
   5,   1,  24,           0                                           
   6,   1,   1,           0                                           
   6,   1,   2,           0                                           
   6,   1,   3,           0                                           
   6,   1,   4,           0                                           
   6,   1,   5,           0                                           
   6,   1,   6,           0                                           
   6,   1,   7,           0                                           
   6,   1,   8,           0                                           
   6,   1,   9,           0                                           
   6,   1,  10,           0                                           
   6,   1,  11,           0                                           
   6,   1,  12,           0                                           
   6,   1,  13,           0                                           
   6,   1,  14,           0                                           
   6,   1,  15,           0                                           
   6,   1,  16,           0                                           
   6,   1,  17,           0                                           
   6,   1,  18,           0                                           
   6,   1,  19,           0                                           
   6,   1,  20,           0                                           
   6,   1,  21,           0                                           
   6,   1,  22,           0                                           
   6,   1,  23,           0                                           
   6,   1,  24,           0                                           
   7,   1,   1,           0                                           
   7,   1,   2,           0                                           
   7,   1,   3,           0                                           
   7,   1,   4,           0                                           
   7,   1,   5,           0                                           
   7,   1,   6,           0                                           
   7,   1,   7,           0                                           
   7,   1,   8,           0                                           
   7,   1,   9,           0                                           
   7,   1,  10,           0                                           
   7,   1,  11,           0                                           
   7,   1,  12,           0                                           
   7,   1,  13,           0                                           
   7,   1,  14,           0                                           
   7,   1,  15,           0                                           
   7,   1,  16,           0                                           
   7,   1,  17,           0                                           
   7,   1,  18,           0                                           
   7,   1,  19,           0                                           
   7,   1,  20,           0                                           
   7,   1,  21,           0                                           
   7,   1,  22,           0                                           
   7,   1,  23,           0                                           
   7,   1,  24,           0                                           
