Varies per block?       ,    1,Unit    ,  $/MWh,     5,     1,  2021  
Varies per sequence?    ,    1                                        
# of agents             ,    1                                        
Stag,Seq.,Blck,Region 1                                               
   1,   1,   1,           0                                           
   2,   1,   1,           0                                           
   3,   1,   1,           0                                           
   4,   1,   1,           0                                           
   5,   1,   1,           0                                           
   6,   1,   1,           0                                           
   7,   1,   1,           0                                           
