Varies per block?       ,    1,Unit    ,    MWh,     5,     1,  2021  
Varies per sequence?    ,    1                                        
# of agents             ,    1                                        
Stag,Seq.,Blck,Renewable 1                                            
   1,   1,   1,          10                                           
   1,   1,   2,          10                                           
   1,   1,   3,          10                                           
   1,   1,   4,          10                                           
   1,   1,   5,          10                                           
   1,   1,   6,          10                                           
   1,   1,   7,          10                                           
   1,   1,   8,          10                                           
   1,   1,   9,          10                                           
   1,   1,  10,          10                                           
   1,   1,  11,        12.5                                           
   1,   1,  12,        12.5                                           
   1,   1,  13,        12.5                                           
   1,   1,  14,        12.5                                           
   1,   1,  15,        12.5                                           
   1,   1,  16,        12.5                                           
   1,   1,  17,        12.5                                           
   1,   1,  18,        12.5                                           
   1,   1,  19,        12.5                                           
   1,   1,  20,        12.5                                           
   1,   1,  21,        12.5                                           
   1,   1,  22,        12.5                                           
   1,   1,  23,        12.5                                           
   1,   1,  24,        12.5                                           
   1,   2,   1,          10                                           
   1,   2,   2,          10                                           
   1,   2,   3,          10                                           
   1,   2,   4,          10                                           
   1,   2,   5,          10                                           
   1,   2,   6,          10                                           
   1,   2,   7,          10                                           
   1,   2,   8,          10                                           
   1,   2,   9,          10                                           
   1,   2,  10,          10                                           
   1,   2,  11,        12.5                                           
   1,   2,  12,        12.5                                           
   1,   2,  13,        12.5                                           
   1,   2,  14,        12.5                                           
   1,   2,  15,        12.5                                           
   1,   2,  16,        12.5                                           
   1,   2,  17,        12.5                                           
   1,   2,  18,        12.5                                           
   1,   2,  19,        12.5                                           
   1,   2,  20,        12.5                                           
   1,   2,  21,        12.5                                           
   1,   2,  22,        12.5                                           
   1,   2,  23,        12.5                                           
   1,   2,  24,        12.5                                           
   1,   3,   1,          10                                           
   1,   3,   2,          10                                           
   1,   3,   3,          10                                           
   1,   3,   4,          10                                           
   1,   3,   5,          10                                           
   1,   3,   6,          10                                           
   1,   3,   7,          10                                           
   1,   3,   8,          10                                           
   1,   3,   9,          10                                           
   1,   3,  10,          10                                           
   1,   3,  11,        12.5                                           
   1,   3,  12,        12.5                                           
   1,   3,  13,        12.5                                           
   1,   3,  14,        12.5                                           
   1,   3,  15,        12.5                                           
   1,   3,  16,        12.5                                           
   1,   3,  17,        12.5                                           
   1,   3,  18,        12.5                                           
   1,   3,  19,        12.5                                           
   1,   3,  20,        12.5                                           
   1,   3,  21,        12.5                                           
   1,   3,  22,        12.5                                           
   1,   3,  23,        12.5                                           
   1,   3,  24,        12.5                                           
   1,   4,   1,          10                                           
   1,   4,   2,          10                                           
   1,   4,   3,          10                                           
   1,   4,   4,          10                                           
   1,   4,   5,          10                                           
   1,   4,   6,          10                                           
   1,   4,   7,          10                                           
   1,   4,   8,          10                                           
   1,   4,   9,          10                                           
   1,   4,  10,          10                                           
   1,   4,  11,        12.5                                           
   1,   4,  12,        12.5                                           
   1,   4,  13,        12.5                                           
   1,   4,  14,        12.5                                           
   1,   4,  15,        12.5                                           
   1,   4,  16,        12.5                                           
   1,   4,  17,        12.5                                           
   1,   4,  18,        12.5                                           
   1,   4,  19,        12.5                                           
   1,   4,  20,        12.5                                           
   1,   4,  21,        12.5                                           
   1,   4,  22,        12.5                                           
   1,   4,  23,        12.5                                           
   1,   4,  24,        12.5                                           
   1,   5,   1,          10                                           
   1,   5,   2,          10                                           
   1,   5,   3,          10                                           
   1,   5,   4,          10                                           
   1,   5,   5,          10                                           
   1,   5,   6,          10                                           
   1,   5,   7,          10                                           
   1,   5,   8,          10                                           
   1,   5,   9,          10                                           
   1,   5,  10,          10                                           
   1,   5,  11,        12.5                                           
   1,   5,  12,        12.5                                           
   1,   5,  13,        12.5                                           
   1,   5,  14,        12.5                                           
   1,   5,  15,        12.5                                           
   1,   5,  16,        12.5                                           
   1,   5,  17,        12.5                                           
   1,   5,  18,        12.5                                           
   1,   5,  19,        12.5                                           
   1,   5,  20,        12.5                                           
   1,   5,  21,        12.5                                           
   1,   5,  22,        12.5                                           
   1,   5,  23,        12.5                                           
   1,   5,  24,        12.5                                           
   2,   1,   1,          10                                           
   2,   1,   2,          10                                           
   2,   1,   3,          10                                           
   2,   1,   4,          10                                           
   2,   1,   5,          10                                           
   2,   1,   6,          10                                           
   2,   1,   7,          10                                           
   2,   1,   8,          10                                           
   2,   1,   9,          10                                           
   2,   1,  10,          10                                           
   2,   1,  11,        12.5                                           
   2,   1,  12,        12.5                                           
   2,   1,  13,        12.5                                           
   2,   1,  14,        12.5                                           
   2,   1,  15,        12.5                                           
   2,   1,  16,        12.5                                           
   2,   1,  17,        12.5                                           
   2,   1,  18,        12.5                                           
   2,   1,  19,        12.5                                           
   2,   1,  20,        12.5                                           
   2,   1,  21,        12.5                                           
   2,   1,  22,        12.5                                           
   2,   1,  23,        12.5                                           
   2,   1,  24,        12.5                                           
   2,   2,   1,          10                                           
   2,   2,   2,          10                                           
   2,   2,   3,          10                                           
   2,   2,   4,          10                                           
   2,   2,   5,          10                                           
   2,   2,   6,          10                                           
   2,   2,   7,          10                                           
   2,   2,   8,          10                                           
   2,   2,   9,          10                                           
   2,   2,  10,          10                                           
   2,   2,  11,        12.5                                           
   2,   2,  12,        12.5                                           
   2,   2,  13,        12.5                                           
   2,   2,  14,        12.5                                           
   2,   2,  15,        12.5                                           
   2,   2,  16,        12.5                                           
   2,   2,  17,        12.5                                           
   2,   2,  18,        12.5                                           
   2,   2,  19,        12.5                                           
   2,   2,  20,        12.5                                           
   2,   2,  21,        12.5                                           
   2,   2,  22,        12.5                                           
   2,   2,  23,        12.5                                           
   2,   2,  24,        12.5                                           
   2,   3,   1,          10                                           
   2,   3,   2,          10                                           
   2,   3,   3,          10                                           
   2,   3,   4,          10                                           
   2,   3,   5,          10                                           
   2,   3,   6,          10                                           
   2,   3,   7,          10                                           
   2,   3,   8,          10                                           
   2,   3,   9,          10                                           
   2,   3,  10,          10                                           
   2,   3,  11,        12.5                                           
   2,   3,  12,        12.5                                           
   2,   3,  13,        12.5                                           
   2,   3,  14,        12.5                                           
   2,   3,  15,        12.5                                           
   2,   3,  16,        12.5                                           
   2,   3,  17,        12.5                                           
   2,   3,  18,        12.5                                           
   2,   3,  19,        12.5                                           
   2,   3,  20,        12.5                                           
   2,   3,  21,        12.5                                           
   2,   3,  22,        12.5                                           
   2,   3,  23,        12.5                                           
   2,   3,  24,        12.5                                           
   2,   4,   1,          10                                           
   2,   4,   2,          10                                           
   2,   4,   3,          10                                           
   2,   4,   4,          10                                           
   2,   4,   5,          10                                           
   2,   4,   6,          10                                           
   2,   4,   7,          10                                           
   2,   4,   8,          10                                           
   2,   4,   9,          10                                           
   2,   4,  10,          10                                           
   2,   4,  11,        12.5                                           
   2,   4,  12,        12.5                                           
   2,   4,  13,        12.5                                           
   2,   4,  14,        12.5                                           
   2,   4,  15,        12.5                                           
   2,   4,  16,        12.5                                           
   2,   4,  17,        12.5                                           
   2,   4,  18,        12.5                                           
   2,   4,  19,        12.5                                           
   2,   4,  20,        12.5                                           
   2,   4,  21,        12.5                                           
   2,   4,  22,        12.5                                           
   2,   4,  23,        12.5                                           
   2,   4,  24,        12.5                                           
   2,   5,   1,          10                                           
   2,   5,   2,          10                                           
   2,   5,   3,          10                                           
   2,   5,   4,          10                                           
   2,   5,   5,          10                                           
   2,   5,   6,          10                                           
   2,   5,   7,          10                                           
   2,   5,   8,          10                                           
   2,   5,   9,          10                                           
   2,   5,  10,          10                                           
   2,   5,  11,        12.5                                           
   2,   5,  12,        12.5                                           
   2,   5,  13,        12.5                                           
   2,   5,  14,        12.5                                           
   2,   5,  15,        12.5                                           
   2,   5,  16,        12.5                                           
   2,   5,  17,        12.5                                           
   2,   5,  18,        12.5                                           
   2,   5,  19,        12.5                                           
   2,   5,  20,        12.5                                           
   2,   5,  21,        12.5                                           
   2,   5,  22,        12.5                                           
   2,   5,  23,        12.5                                           
   2,   5,  24,        12.5                                           
   3,   1,   1,          10                                           
   3,   1,   2,          10                                           
   3,   1,   3,          10                                           
   3,   1,   4,          10                                           
   3,   1,   5,          10                                           
   3,   1,   6,          10                                           
   3,   1,   7,          10                                           
   3,   1,   8,          10                                           
   3,   1,   9,          10                                           
   3,   1,  10,          10                                           
   3,   1,  11,        12.5                                           
   3,   1,  12,        12.5                                           
   3,   1,  13,        12.5                                           
   3,   1,  14,        12.5                                           
   3,   1,  15,        12.5                                           
   3,   1,  16,        12.5                                           
   3,   1,  17,        12.5                                           
   3,   1,  18,        12.5                                           
   3,   1,  19,        12.5                                           
   3,   1,  20,        12.5                                           
   3,   1,  21,        12.5                                           
   3,   1,  22,        12.5                                           
   3,   1,  23,        12.5                                           
   3,   1,  24,        12.5                                           
   3,   2,   1,          10                                           
   3,   2,   2,          10                                           
   3,   2,   3,          10                                           
   3,   2,   4,          10                                           
   3,   2,   5,          10                                           
   3,   2,   6,          10                                           
   3,   2,   7,          10                                           
   3,   2,   8,          10                                           
   3,   2,   9,          10                                           
   3,   2,  10,          10                                           
   3,   2,  11,        12.5                                           
   3,   2,  12,        12.5                                           
   3,   2,  13,        12.5                                           
   3,   2,  14,        12.5                                           
   3,   2,  15,        12.5                                           
   3,   2,  16,        12.5                                           
   3,   2,  17,        12.5                                           
   3,   2,  18,        12.5                                           
   3,   2,  19,        12.5                                           
   3,   2,  20,        12.5                                           
   3,   2,  21,        12.5                                           
   3,   2,  22,        12.5                                           
   3,   2,  23,        12.5                                           
   3,   2,  24,        12.5                                           
   3,   3,   1,          10                                           
   3,   3,   2,          10                                           
   3,   3,   3,          10                                           
   3,   3,   4,          10                                           
   3,   3,   5,          10                                           
   3,   3,   6,          10                                           
   3,   3,   7,          10                                           
   3,   3,   8,          10                                           
   3,   3,   9,          10                                           
   3,   3,  10,          10                                           
   3,   3,  11,        12.5                                           
   3,   3,  12,        12.5                                           
   3,   3,  13,        12.5                                           
   3,   3,  14,        12.5                                           
   3,   3,  15,        12.5                                           
   3,   3,  16,        12.5                                           
   3,   3,  17,        12.5                                           
   3,   3,  18,        12.5                                           
   3,   3,  19,        12.5                                           
   3,   3,  20,        12.5                                           
   3,   3,  21,        12.5                                           
   3,   3,  22,        12.5                                           
   3,   3,  23,        12.5                                           
   3,   3,  24,        12.5                                           
   3,   4,   1,          10                                           
   3,   4,   2,          10                                           
   3,   4,   3,          10                                           
   3,   4,   4,          10                                           
   3,   4,   5,          10                                           
   3,   4,   6,          10                                           
   3,   4,   7,          10                                           
   3,   4,   8,          10                                           
   3,   4,   9,          10                                           
   3,   4,  10,          10                                           
   3,   4,  11,        12.5                                           
   3,   4,  12,        12.5                                           
   3,   4,  13,        12.5                                           
   3,   4,  14,        12.5                                           
   3,   4,  15,        12.5                                           
   3,   4,  16,        12.5                                           
   3,   4,  17,        12.5                                           
   3,   4,  18,        12.5                                           
   3,   4,  19,        12.5                                           
   3,   4,  20,        12.5                                           
   3,   4,  21,        12.5                                           
   3,   4,  22,        12.5                                           
   3,   4,  23,        12.5                                           
   3,   4,  24,        12.5                                           
   3,   5,   1,          10                                           
   3,   5,   2,          10                                           
   3,   5,   3,          10                                           
   3,   5,   4,          10                                           
   3,   5,   5,          10                                           
   3,   5,   6,          10                                           
   3,   5,   7,          10                                           
   3,   5,   8,          10                                           
   3,   5,   9,          10                                           
   3,   5,  10,          10                                           
   3,   5,  11,        12.5                                           
   3,   5,  12,        12.5                                           
   3,   5,  13,        12.5                                           
   3,   5,  14,        12.5                                           
   3,   5,  15,        12.5                                           
   3,   5,  16,        12.5                                           
   3,   5,  17,        12.5                                           
   3,   5,  18,        12.5                                           
   3,   5,  19,        12.5                                           
   3,   5,  20,        12.5                                           
   3,   5,  21,        12.5                                           
   3,   5,  22,        12.5                                           
   3,   5,  23,        12.5                                           
   3,   5,  24,        12.5                                           
   4,   1,   1,          10                                           
   4,   1,   2,          10                                           
   4,   1,   3,          10                                           
   4,   1,   4,          10                                           
   4,   1,   5,          10                                           
   4,   1,   6,          10                                           
   4,   1,   7,          10                                           
   4,   1,   8,          10                                           
   4,   1,   9,          10                                           
   4,   1,  10,          10                                           
   4,   1,  11,        12.5                                           
   4,   1,  12,        12.5                                           
   4,   1,  13,        12.5                                           
   4,   1,  14,        12.5                                           
   4,   1,  15,        12.5                                           
   4,   1,  16,        12.5                                           
   4,   1,  17,        12.5                                           
   4,   1,  18,        12.5                                           
   4,   1,  19,        12.5                                           
   4,   1,  20,        12.5                                           
   4,   1,  21,        12.5                                           
   4,   1,  22,        12.5                                           
   4,   1,  23,        12.5                                           
   4,   1,  24,        12.5                                           
   4,   2,   1,          10                                           
   4,   2,   2,          10                                           
   4,   2,   3,          10                                           
   4,   2,   4,          10                                           
   4,   2,   5,          10                                           
   4,   2,   6,          10                                           
   4,   2,   7,          10                                           
   4,   2,   8,          10                                           
   4,   2,   9,          10                                           
   4,   2,  10,          10                                           
   4,   2,  11,        12.5                                           
   4,   2,  12,        12.5                                           
   4,   2,  13,        12.5                                           
   4,   2,  14,        12.5                                           
   4,   2,  15,        12.5                                           
   4,   2,  16,        12.5                                           
   4,   2,  17,        12.5                                           
   4,   2,  18,        12.5                                           
   4,   2,  19,        12.5                                           
   4,   2,  20,        12.5                                           
   4,   2,  21,        12.5                                           
   4,   2,  22,        12.5                                           
   4,   2,  23,        12.5                                           
   4,   2,  24,        12.5                                           
   4,   3,   1,          10                                           
   4,   3,   2,          10                                           
   4,   3,   3,          10                                           
   4,   3,   4,          10                                           
   4,   3,   5,          10                                           
   4,   3,   6,          10                                           
   4,   3,   7,          10                                           
   4,   3,   8,          10                                           
   4,   3,   9,          10                                           
   4,   3,  10,          10                                           
   4,   3,  11,        12.5                                           
   4,   3,  12,        12.5                                           
   4,   3,  13,        12.5                                           
   4,   3,  14,        12.5                                           
   4,   3,  15,        12.5                                           
   4,   3,  16,        12.5                                           
   4,   3,  17,        12.5                                           
   4,   3,  18,        12.5                                           
   4,   3,  19,        12.5                                           
   4,   3,  20,        12.5                                           
   4,   3,  21,        12.5                                           
   4,   3,  22,        12.5                                           
   4,   3,  23,        12.5                                           
   4,   3,  24,        12.5                                           
   4,   4,   1,          10                                           
   4,   4,   2,          10                                           
   4,   4,   3,          10                                           
   4,   4,   4,          10                                           
   4,   4,   5,          10                                           
   4,   4,   6,          10                                           
   4,   4,   7,          10                                           
   4,   4,   8,          10                                           
   4,   4,   9,          10                                           
   4,   4,  10,          10                                           
   4,   4,  11,        12.5                                           
   4,   4,  12,        12.5                                           
   4,   4,  13,        12.5                                           
   4,   4,  14,        12.5                                           
   4,   4,  15,        12.5                                           
   4,   4,  16,        12.5                                           
   4,   4,  17,        12.5                                           
   4,   4,  18,        12.5                                           
   4,   4,  19,        12.5                                           
   4,   4,  20,        12.5                                           
   4,   4,  21,        12.5                                           
   4,   4,  22,        12.5                                           
   4,   4,  23,        12.5                                           
   4,   4,  24,        12.5                                           
   4,   5,   1,          10                                           
   4,   5,   2,          10                                           
   4,   5,   3,          10                                           
   4,   5,   4,          10                                           
   4,   5,   5,          10                                           
   4,   5,   6,          10                                           
   4,   5,   7,          10                                           
   4,   5,   8,          10                                           
   4,   5,   9,          10                                           
   4,   5,  10,          10                                           
   4,   5,  11,        12.5                                           
   4,   5,  12,        12.5                                           
   4,   5,  13,        12.5                                           
   4,   5,  14,        12.5                                           
   4,   5,  15,        12.5                                           
   4,   5,  16,        12.5                                           
   4,   5,  17,        12.5                                           
   4,   5,  18,        12.5                                           
   4,   5,  19,        12.5                                           
   4,   5,  20,        12.5                                           
   4,   5,  21,        12.5                                           
   4,   5,  22,        12.5                                           
   4,   5,  23,        12.5                                           
   4,   5,  24,        12.5                                           
   5,   1,   1,          10                                           
   5,   1,   2,          10                                           
   5,   1,   3,          10                                           
   5,   1,   4,          10                                           
   5,   1,   5,          10                                           
   5,   1,   6,          10                                           
   5,   1,   7,          10                                           
   5,   1,   8,          10                                           
   5,   1,   9,          10                                           
   5,   1,  10,          10                                           
   5,   1,  11,        12.5                                           
   5,   1,  12,        12.5                                           
   5,   1,  13,        12.5                                           
   5,   1,  14,        12.5                                           
   5,   1,  15,        12.5                                           
   5,   1,  16,        12.5                                           
   5,   1,  17,        12.5                                           
   5,   1,  18,        12.5                                           
   5,   1,  19,        12.5                                           
   5,   1,  20,        12.5                                           
   5,   1,  21,        12.5                                           
   5,   1,  22,        12.5                                           
   5,   1,  23,        12.5                                           
   5,   1,  24,        12.5                                           
   5,   2,   1,          10                                           
   5,   2,   2,          10                                           
   5,   2,   3,          10                                           
   5,   2,   4,          10                                           
   5,   2,   5,          10                                           
   5,   2,   6,          10                                           
   5,   2,   7,          10                                           
   5,   2,   8,          10                                           
   5,   2,   9,          10                                           
   5,   2,  10,          10                                           
   5,   2,  11,        12.5                                           
   5,   2,  12,        12.5                                           
   5,   2,  13,        12.5                                           
   5,   2,  14,        12.5                                           
   5,   2,  15,        12.5                                           
   5,   2,  16,        12.5                                           
   5,   2,  17,        12.5                                           
   5,   2,  18,        12.5                                           
   5,   2,  19,        12.5                                           
   5,   2,  20,        12.5                                           
   5,   2,  21,        12.5                                           
   5,   2,  22,        12.5                                           
   5,   2,  23,        12.5                                           
   5,   2,  24,        12.5                                           
   5,   3,   1,          10                                           
   5,   3,   2,          10                                           
   5,   3,   3,          10                                           
   5,   3,   4,          10                                           
   5,   3,   5,          10                                           
   5,   3,   6,          10                                           
   5,   3,   7,          10                                           
   5,   3,   8,          10                                           
   5,   3,   9,          10                                           
   5,   3,  10,          10                                           
   5,   3,  11,        12.5                                           
   5,   3,  12,        12.5                                           
   5,   3,  13,        12.5                                           
   5,   3,  14,        12.5                                           
   5,   3,  15,        12.5                                           
   5,   3,  16,        12.5                                           
   5,   3,  17,        12.5                                           
   5,   3,  18,        12.5                                           
   5,   3,  19,        12.5                                           
   5,   3,  20,        12.5                                           
   5,   3,  21,        12.5                                           
   5,   3,  22,        12.5                                           
   5,   3,  23,        12.5                                           
   5,   3,  24,        12.5                                           
   5,   4,   1,          10                                           
   5,   4,   2,          10                                           
   5,   4,   3,          10                                           
   5,   4,   4,          10                                           
   5,   4,   5,          10                                           
   5,   4,   6,          10                                           
   5,   4,   7,          10                                           
   5,   4,   8,          10                                           
   5,   4,   9,          10                                           
   5,   4,  10,          10                                           
   5,   4,  11,        12.5                                           
   5,   4,  12,        12.5                                           
   5,   4,  13,        12.5                                           
   5,   4,  14,        12.5                                           
   5,   4,  15,        12.5                                           
   5,   4,  16,        12.5                                           
   5,   4,  17,        12.5                                           
   5,   4,  18,        12.5                                           
   5,   4,  19,        12.5                                           
   5,   4,  20,        12.5                                           
   5,   4,  21,        12.5                                           
   5,   4,  22,        12.5                                           
   5,   4,  23,        12.5                                           
   5,   4,  24,        12.5                                           
   5,   5,   1,          10                                           
   5,   5,   2,          10                                           
   5,   5,   3,          10                                           
   5,   5,   4,          10                                           
   5,   5,   5,          10                                           
   5,   5,   6,          10                                           
   5,   5,   7,          10                                           
   5,   5,   8,          10                                           
   5,   5,   9,          10                                           
   5,   5,  10,          10                                           
   5,   5,  11,        12.5                                           
   5,   5,  12,        12.5                                           
   5,   5,  13,        12.5                                           
   5,   5,  14,        12.5                                           
   5,   5,  15,        12.5                                           
   5,   5,  16,        12.5                                           
   5,   5,  17,        12.5                                           
   5,   5,  18,        12.5                                           
   5,   5,  19,        12.5                                           
   5,   5,  20,        12.5                                           
   5,   5,  21,        12.5                                           
   5,   5,  22,        12.5                                           
   5,   5,  23,        12.5                                           
   5,   5,  24,        12.5                                           
   6,   1,   1,          10                                           
   6,   1,   2,          10                                           
   6,   1,   3,          10                                           
   6,   1,   4,          10                                           
   6,   1,   5,          10                                           
   6,   1,   6,          10                                           
   6,   1,   7,          10                                           
   6,   1,   8,          10                                           
   6,   1,   9,          10                                           
   6,   1,  10,          10                                           
   6,   1,  11,        12.5                                           
   6,   1,  12,        12.5                                           
   6,   1,  13,        12.5                                           
   6,   1,  14,        12.5                                           
   6,   1,  15,        12.5                                           
   6,   1,  16,        12.5                                           
   6,   1,  17,        12.5                                           
   6,   1,  18,        12.5                                           
   6,   1,  19,        12.5                                           
   6,   1,  20,        12.5                                           
   6,   1,  21,        12.5                                           
   6,   1,  22,        12.5                                           
   6,   1,  23,        12.5                                           
   6,   1,  24,        12.5                                           
   6,   2,   1,          10                                           
   6,   2,   2,          10                                           
   6,   2,   3,          10                                           
   6,   2,   4,          10                                           
   6,   2,   5,          10                                           
   6,   2,   6,          10                                           
   6,   2,   7,          10                                           
   6,   2,   8,          10                                           
   6,   2,   9,          10                                           
   6,   2,  10,          10                                           
   6,   2,  11,        12.5                                           
   6,   2,  12,        12.5                                           
   6,   2,  13,        12.5                                           
   6,   2,  14,        12.5                                           
   6,   2,  15,        12.5                                           
   6,   2,  16,        12.5                                           
   6,   2,  17,        12.5                                           
   6,   2,  18,        12.5                                           
   6,   2,  19,        12.5                                           
   6,   2,  20,        12.5                                           
   6,   2,  21,        12.5                                           
   6,   2,  22,        12.5                                           
   6,   2,  23,        12.5                                           
   6,   2,  24,        12.5                                           
   6,   3,   1,          10                                           
   6,   3,   2,          10                                           
   6,   3,   3,          10                                           
   6,   3,   4,          10                                           
   6,   3,   5,          10                                           
   6,   3,   6,          10                                           
   6,   3,   7,          10                                           
   6,   3,   8,          10                                           
   6,   3,   9,          10                                           
   6,   3,  10,          10                                           
   6,   3,  11,        12.5                                           
   6,   3,  12,        12.5                                           
   6,   3,  13,        12.5                                           
   6,   3,  14,        12.5                                           
   6,   3,  15,        12.5                                           
   6,   3,  16,        12.5                                           
   6,   3,  17,        12.5                                           
   6,   3,  18,        12.5                                           
   6,   3,  19,        12.5                                           
   6,   3,  20,        12.5                                           
   6,   3,  21,        12.5                                           
   6,   3,  22,        12.5                                           
   6,   3,  23,        12.5                                           
   6,   3,  24,        12.5                                           
   6,   4,   1,          10                                           
   6,   4,   2,          10                                           
   6,   4,   3,          10                                           
   6,   4,   4,          10                                           
   6,   4,   5,          10                                           
   6,   4,   6,          10                                           
   6,   4,   7,          10                                           
   6,   4,   8,          10                                           
   6,   4,   9,          10                                           
   6,   4,  10,          10                                           
   6,   4,  11,        12.5                                           
   6,   4,  12,        12.5                                           
   6,   4,  13,        12.5                                           
   6,   4,  14,        12.5                                           
   6,   4,  15,        12.5                                           
   6,   4,  16,        12.5                                           
   6,   4,  17,        12.5                                           
   6,   4,  18,        12.5                                           
   6,   4,  19,        12.5                                           
   6,   4,  20,        12.5                                           
   6,   4,  21,        12.5                                           
   6,   4,  22,        12.5                                           
   6,   4,  23,        12.5                                           
   6,   4,  24,        12.5                                           
   6,   5,   1,          10                                           
   6,   5,   2,          10                                           
   6,   5,   3,          10                                           
   6,   5,   4,          10                                           
   6,   5,   5,          10                                           
   6,   5,   6,          10                                           
   6,   5,   7,          10                                           
   6,   5,   8,          10                                           
   6,   5,   9,          10                                           
   6,   5,  10,          10                                           
   6,   5,  11,        12.5                                           
   6,   5,  12,        12.5                                           
   6,   5,  13,        12.5                                           
   6,   5,  14,        12.5                                           
   6,   5,  15,        12.5                                           
   6,   5,  16,        12.5                                           
   6,   5,  17,        12.5                                           
   6,   5,  18,        12.5                                           
   6,   5,  19,        12.5                                           
   6,   5,  20,        12.5                                           
   6,   5,  21,        12.5                                           
   6,   5,  22,        12.5                                           
   6,   5,  23,        12.5                                           
   6,   5,  24,        12.5                                           
   7,   1,   1,          10                                           
   7,   1,   2,          10                                           
   7,   1,   3,          10                                           
   7,   1,   4,          10                                           
   7,   1,   5,          10                                           
   7,   1,   6,          10                                           
   7,   1,   7,          10                                           
   7,   1,   8,          10                                           
   7,   1,   9,          10                                           
   7,   1,  10,          10                                           
   7,   1,  11,        12.5                                           
   7,   1,  12,        12.5                                           
   7,   1,  13,        12.5                                           
   7,   1,  14,        12.5                                           
   7,   1,  15,        12.5                                           
   7,   1,  16,        12.5                                           
   7,   1,  17,        12.5                                           
   7,   1,  18,        12.5                                           
   7,   1,  19,        12.5                                           
   7,   1,  20,        12.5                                           
   7,   1,  21,        12.5                                           
   7,   1,  22,        12.5                                           
   7,   1,  23,        12.5                                           
   7,   1,  24,        12.5                                           
   7,   2,   1,          10                                           
   7,   2,   2,          10                                           
   7,   2,   3,          10                                           
   7,   2,   4,          10                                           
   7,   2,   5,          10                                           
   7,   2,   6,          10                                           
   7,   2,   7,          10                                           
   7,   2,   8,          10                                           
   7,   2,   9,          10                                           
   7,   2,  10,          10                                           
   7,   2,  11,        12.5                                           
   7,   2,  12,        12.5                                           
   7,   2,  13,        12.5                                           
   7,   2,  14,        12.5                                           
   7,   2,  15,        12.5                                           
   7,   2,  16,        12.5                                           
   7,   2,  17,        12.5                                           
   7,   2,  18,        12.5                                           
   7,   2,  19,        12.5                                           
   7,   2,  20,        12.5                                           
   7,   2,  21,        12.5                                           
   7,   2,  22,        12.5                                           
   7,   2,  23,        12.5                                           
   7,   2,  24,        12.5                                           
   7,   3,   1,          10                                           
   7,   3,   2,          10                                           
   7,   3,   3,          10                                           
   7,   3,   4,          10                                           
   7,   3,   5,          10                                           
   7,   3,   6,          10                                           
   7,   3,   7,          10                                           
   7,   3,   8,          10                                           
   7,   3,   9,          10                                           
   7,   3,  10,          10                                           
   7,   3,  11,        12.5                                           
   7,   3,  12,        12.5                                           
   7,   3,  13,        12.5                                           
   7,   3,  14,        12.5                                           
   7,   3,  15,        12.5                                           
   7,   3,  16,        12.5                                           
   7,   3,  17,        12.5                                           
   7,   3,  18,        12.5                                           
   7,   3,  19,        12.5                                           
   7,   3,  20,        12.5                                           
   7,   3,  21,        12.5                                           
   7,   3,  22,        12.5                                           
   7,   3,  23,        12.5                                           
   7,   3,  24,        12.5                                           
   7,   4,   1,          10                                           
   7,   4,   2,          10                                           
   7,   4,   3,          10                                           
   7,   4,   4,          10                                           
   7,   4,   5,          10                                           
   7,   4,   6,          10                                           
   7,   4,   7,          10                                           
   7,   4,   8,          10                                           
   7,   4,   9,          10                                           
   7,   4,  10,          10                                           
   7,   4,  11,        12.5                                           
   7,   4,  12,        12.5                                           
   7,   4,  13,        12.5                                           
   7,   4,  14,        12.5                                           
   7,   4,  15,        12.5                                           
   7,   4,  16,        12.5                                           
   7,   4,  17,        12.5                                           
   7,   4,  18,        12.5                                           
   7,   4,  19,        12.5                                           
   7,   4,  20,        12.5                                           
   7,   4,  21,        12.5                                           
   7,   4,  22,        12.5                                           
   7,   4,  23,        12.5                                           
   7,   4,  24,        12.5                                           
   7,   5,   1,          10                                           
   7,   5,   2,          10                                           
   7,   5,   3,          10                                           
   7,   5,   4,          10                                           
   7,   5,   5,          10                                           
   7,   5,   6,          10                                           
   7,   5,   7,          10                                           
   7,   5,   8,          10                                           
   7,   5,   9,          10                                           
   7,   5,  10,          10                                           
   7,   5,  11,        12.5                                           
   7,   5,  12,        12.5                                           
   7,   5,  13,        12.5                                           
   7,   5,  14,        12.5                                           
   7,   5,  15,        12.5                                           
   7,   5,  16,        12.5                                           
   7,   5,  17,        12.5                                           
   7,   5,  18,        12.5                                           
   7,   5,  19,        12.5                                           
   7,   5,  20,        12.5                                           
   7,   5,  21,        12.5                                           
   7,   5,  22,        12.5                                           
   7,   5,  23,        12.5                                           
   7,   5,  24,        12.5                                           
