Varies per block?       ,    1,Unit    ,    MWh,     5,     1,  2021  
Varies per sequence?    ,    1                                        
# of agents             ,    3                                        
Stag,Seq.,Blck,VR 1        ,VR 2        ,VR 3                         
   1,   1,   1,     91.7775,     416.667,     138.889                 
   1,   2,   1,     77.7775,     416.667,     121.889                 
   1,   3,   1,     77.7775,     416.667,     91.8892                 
   1,   4,   1,     77.7775,     416.667,     61.8892                 
   1,   5,   1,     77.7775,     416.667,     38.8892                 
   2,   1,   1,    -94.2225,     416.667,     138.889                 
   2,   2,   1,    -122.222,     416.667,     104.889                 
   2,   3,   1,    -122.223,     416.667,     44.8892                 
   2,   4,   1,    -122.222,     416.667,    -15.1108                 
   2,   5,   1,    -122.222,     416.667,    -61.1108                 
   3,   1,   1,    -280.223,     416.667,     138.889                 
   3,   2,   1,    -322.222,     416.667,     87.8892                 
   3,   3,   1,    -322.222,     416.667,    -2.11083                 
   3,   4,   1,    -322.222,     416.667,    -92.1108                 
   3,   5,   1,           0,           0,           0                 
   4,   1,   1,    -466.222,     416.667,     138.889                 
   4,   2,   1,           0,           0,           0                 
   4,   3,   1,           0,           0,           0                 
   4,   4,   1,           0,           0,           0                 
   4,   5,   1,           0,           0,           0                 
   5,   1,   1,           0,           0,           0                 
   5,   2,   1,           0,           0,           0                 
   5,   3,   1,           0,           0,           0                 
   5,   4,   1,           0,           0,           0                 
   5,   5,   1,           0,           0,           0                 
   6,   1,   1,           0,           0,           0                 
   6,   2,   1,           0,           0,           0                 
   6,   3,   1,           0,           0,           0                 
   6,   4,   1,           0,           0,           0                 
   6,   5,   1,           0,           0,           0                 
   7,   1,   1,           0,           0,           0                 
   7,   2,   1,           0,           0,           0                 
   7,   3,   1,           0,           0,           0                 
   7,   4,   1,           0,           0,           0                 
   7,   5,   1,           0,           0,           0                 
