Varies per block?       ,1,Unit    ,GWh    ,1,1,2021
Varies per sequence?    ,0,,,,,
# of agents             ,1,,,,,
Stag,Scn.,Hour,Demanda 1,,,
1,1,1,0.02904023,,,
1,1,2,0.04205558,,,
1,1,3,0.03765244,,,
1,1,4,0.03335313,,,
1,1,5,0.04545665,,,
1,1,6,0.04261965,,,
1,1,7,0.04739711,,,
1,1,8,0.02939692,,,
1,1,9,0.04117507,,,
1,1,10,0.04896127,,,
1,1,11,0.05084687,,,
1,1,12,0.03801687,,,
1,1,13,0.03231441,,,
1,1,14,0.04754054,,,
1,1,15,0.05402957,,,
1,1,16,0.04511316,,,
1,1,17,0.0383658,,,
1,1,18,0.03806641,,,
1,1,19,0.06522004,,,
1,1,20,0.05987667,,,
1,1,21,0.07990275,,,
1,1,22,0.07904623,,,
1,1,23,0.04773602,,,
1,1,24,0.03593052,,,
1,1,25,0.05383976,,,
1,1,26,0.05213721,,,
1,1,27,0.0292499,,,
1,1,28,0.02871999,,,
1,1,29,0.04614215,,,
1,1,30,0.03674696,,,
1,1,31,0.0281416,,,
1,1,32,0.04967344,,,
1,1,33,0.02892526,,,
1,1,34,0.0555806,,,
1,1,35,0.04322591,,,
1,1,36,0.04538338,,,
1,1,37,0.05280093,,,
1,1,38,0.05129531,,,
1,1,39,0.0544794,,,
1,1,40,0.05039371,,,
1,1,41,0.05552692,,,
1,1,42,0.05285059,,,
1,1,43,0.07004543,,,
1,1,44,0.07221487,,,
1,1,45,0.05972372,,,
1,1,46,0.0682796,,,
1,1,47,0.04348813,,,
1,1,48,0.04325417,,,
1,1,49,0.05182955,,,
1,1,50,0.05072943,,,
1,1,51,0.03715391,,,
1,1,52,0.03615996,,,
1,1,53,0.0500474,,,
1,1,54,0.03900977,,,
1,1,55,0.04931722,,,
1,1,56,0.04471823,,,
1,1,57,0.04214216,,,
1,1,58,0.04160663,,,
1,1,59,0.04204305,,,
1,1,60,0.0476735,,,
1,1,61,0.0425108,,,
1,1,62,0.03903601,,,
1,1,63,0.03666705,,,
1,1,64,0.0409225,,,
1,1,65,0.05175675,,,
1,1,66,0.03053235,,,
1,1,67,0.06470451,,,
1,1,68,0.06000593,,,
1,1,69,0.06492875,,,
1,1,70,0.0691694,,,
1,1,71,0.05472434,,,
1,1,72,0.05297296,,,
1,1,73,0.05568899,,,
1,1,74,0.03043572,,,
1,1,75,0.05162365,,,
1,1,76,0.03755406,,,
1,1,77,0.04077667,,,
1,1,78,0.02940641,,,
1,1,79,0.0312363,,,
1,1,80,0.03183104,,,
1,1,81,0.04383344,,,
1,1,82,0.03603602,,,
1,1,83,0.03212595,,,
1,1,84,0.05187392,,,
1,1,85,0.03490187,,,
1,1,86,0.04697462,,,
1,1,87,0.04227095,,,
1,1,88,0.04842681,,,
1,1,89,0.02817769,,,
1,1,90,0.04682188,,,
1,1,91,0.03167532,,,
1,1,92,0.04907286,,,
1,1,93,0.03669177,,,
1,1,94,0.03080821,,,
1,1,95,0.02995721,,,
1,1,96,0.04351744,,,
1,1,97,0.05036019,,,
1,1,98,0.05452589,,,
1,1,99,0.04665638,,,
1,1,100,0.05183699,,,
1,1,101,0.04181981,,,
1,1,102,0.04069119,,,
1,1,103,0.05182531,,,
1,1,104,0.0304571,,,
1,1,105,0.04036988,,,
1,1,106,0.05192459,,,
1,1,107,0.05368758,,,
1,1,108,0.04465734,,,
1,1,109,0.05348904,,,
1,1,110,0.04992269,,,
1,1,111,0.04191551,,,
1,1,112,0.03623081,,,
1,1,113,0.03214204,,,
1,1,114,0.04422186,,,
1,1,115,0.07653234,,,
1,1,116,0.06946209,,,
1,1,117,0.07627432,,,
1,1,118,0.08299309,,,
1,1,119,0.03823483,,,
1,1,120,0.05254865,,,
1,1,121,0.04479746,,,
1,1,122,0.05162252,,,
1,1,123,0.04607346,,,
1,1,124,0.03291334,,,
1,1,125,0.03032713,,,
1,1,126,0.0400197,,,
1,1,127,0.05276668,,,
1,1,128,0.04788707,,,
1,1,129,0.04378512,,,
1,1,130,0.04978161,,,
1,1,131,0.03965493,,,
1,1,132,0.05101488,,,
1,1,133,0.03393242,,,
1,1,134,0.04871402,,,
1,1,135,0.05071836,,,
1,1,136,0.04173286,,,
1,1,137,0.05309567,,,
1,1,138,0.04452047,,,
1,1,139,0.08101553,,,
1,1,140,0.07574719,,,
1,1,141,0.07999068,,,
1,1,142,0.07176904,,,
1,1,143,0.0514765,,,
1,1,144,0.03657867,,,
1,1,145,0.03028215,,,
1,1,146,0.0352698,,,
1,1,147,0.03075521,,,
1,1,148,0.02823663,,,
1,1,149,0.03576784,,,
1,1,150,0.05212776,,,
1,1,151,0.04827134,,,
1,1,152,0.0321252,,,
1,1,153,0.04488732,,,
1,1,154,0.04782423,,,
1,1,155,0.03018783,,,
1,1,156,0.03086272,,,
1,1,157,0.03942018,,,
1,1,158,0.05554779,,,
1,1,159,0.03206885,,,
1,1,160,0.05010383,,,
1,1,161,0.02987134,,,
1,1,162,0.05566397,,,
1,1,163,0.07218951,,,
1,1,164,0.06036126,,,
1,1,165,0.07632307,,,
1,1,166,0.07337036,,,
1,1,167,0.03988049,,,
1,1,168,0.04292929,,,
