Varies per block?       ,    1,Unit    ,    hm3,     5,     1,  2021  
Varies per sequence?    ,    1                                        
# of agents             ,    3                                        
Stag,Seq.,Blck,Hidro 1     ,Hidro 2     ,Hidro 3                      
   1,   1,   1,       4.892,           0,         2.5                 
   1,   1,   2,       4.784,           0,         2.5                 
   1,   1,   3,       4.676,           0,         2.5                 
   1,   1,   4,       4.568,           0,         2.5                 
   1,   1,   5,        4.46,           0,         2.5                 
   1,   1,   6,       4.352,           0,         2.5                 
   1,   1,   7,       4.244,           0,         2.5                 
   1,   1,   8,       4.136,           0,         2.5                 
   1,   1,   9,       4.028,           0,         2.5                 
   1,   1,  10,        3.92,           0,         2.5                 
   1,   1,  11,       3.812,           0,         2.5                 
   1,   1,  12,       3.704,           0,         2.5                 
   1,   1,  13,       3.596,           0,         2.5                 
   1,   1,  14,       3.488,           0,         2.5                 
   1,   1,  15,        3.38,           0,         2.5                 
   1,   1,  16,       3.272,           0,         2.5                 
   1,   1,  17,       3.164,           0,         2.5                 
   1,   1,  18,       3.056,           0,         2.5                 
   1,   1,  19,       2.948,           0,         2.5                 
   1,   1,  20,        2.84,           0,         2.5                 
   1,   1,  21,       2.732,           0,         2.5                 
   1,   1,  22,       2.624,           0,         2.5                 
   1,   1,  23,       2.516,           0,         2.5                 
   1,   1,  24,     2.43429,           0,     2.43429                 
   1,   2,   1,       4.892,           0,         2.5                 
   1,   2,   2,       4.784,           0,         2.5                 
   1,   2,   3,       4.676,           0,         2.5                 
   1,   2,   4,       4.568,           0,         2.5                 
   1,   2,   5,        4.46,           0,         2.5                 
   1,   2,   6,       4.352,           0,         2.5                 
   1,   2,   7,       4.244,           0,         2.5                 
   1,   2,   8,       4.136,           0,         2.5                 
   1,   2,   9,       4.028,           0,         2.5                 
   1,   2,  10,        3.92,           0,         2.5                 
   1,   2,  11,       3.812,           0,         2.5                 
   1,   2,  12,       3.704,           0,         2.5                 
   1,   2,  13,       3.596,           0,         2.5                 
   1,   2,  14,       3.488,           0,         2.5                 
   1,   2,  15,        3.38,           0,         2.5                 
   1,   2,  16,       3.272,           0,         2.5                 
   1,   2,  17,       3.164,           0,         2.5                 
   1,   2,  18,       3.056,           0,         2.5                 
   1,   2,  19,       2.948,           0,         2.5                 
   1,   2,  20,        2.84,           0,         2.5                 
   1,   2,  21,       2.732,           0,         2.5                 
   1,   2,  22,       2.624,           0,         2.5                 
   1,   2,  23,       2.516,           0,         2.5                 
   1,   2,  24,     2.43429,           0,     2.43429                 
   1,   3,   1,       4.892,           0,         2.5                 
   1,   3,   2,       4.784,           0,         2.5                 
   1,   3,   3,       4.676,           0,         2.5                 
   1,   3,   4,       4.568,           0,         2.5                 
   1,   3,   5,        4.46,           0,         2.5                 
   1,   3,   6,       4.352,           0,         2.5                 
   1,   3,   7,       4.244,           0,         2.5                 
   1,   3,   8,       4.136,           0,         2.5                 
   1,   3,   9,       4.028,           0,         2.5                 
   1,   3,  10,        3.92,           0,         2.5                 
   1,   3,  11,       3.812,           0,         2.5                 
   1,   3,  12,       3.704,           0,         2.5                 
   1,   3,  13,       3.596,           0,         2.5                 
   1,   3,  14,       3.488,           0,         2.5                 
   1,   3,  15,        3.38,           0,         2.5                 
   1,   3,  16,       3.272,           0,         2.5                 
   1,   3,  17,       3.164,           0,         2.5                 
   1,   3,  18,       3.056,           0,         2.5                 
   1,   3,  19,       2.948,           0,         2.5                 
   1,   3,  20,        2.84,           0,         2.5                 
   1,   3,  21,       2.732,           0,         2.5                 
   1,   3,  22,       2.624,           0,         2.5                 
   1,   3,  23,       2.516,           0,         2.5                 
   1,   3,  24,     2.43429,           0,     2.43429                 
   1,   4,   1,       4.892,           0,         2.5                 
   1,   4,   2,       4.784,           0,         2.5                 
   1,   4,   3,       4.676,           0,         2.5                 
   1,   4,   4,       4.568,           0,         2.5                 
   1,   4,   5,        4.46,           0,         2.5                 
   1,   4,   6,       4.352,           0,         2.5                 
   1,   4,   7,       4.244,           0,         2.5                 
   1,   4,   8,       4.136,           0,         2.5                 
   1,   4,   9,       4.028,           0,         2.5                 
   1,   4,  10,        3.92,           0,         2.5                 
   1,   4,  11,       3.812,           0,         2.5                 
   1,   4,  12,       3.704,           0,         2.5                 
   1,   4,  13,       3.596,           0,         2.5                 
   1,   4,  14,       3.488,           0,         2.5                 
   1,   4,  15,        3.38,           0,         2.5                 
   1,   4,  16,       3.272,           0,         2.5                 
   1,   4,  17,       3.164,           0,         2.5                 
   1,   4,  18,       3.056,           0,         2.5                 
   1,   4,  19,       2.948,           0,         2.5                 
   1,   4,  20,        2.84,           0,         2.5                 
   1,   4,  21,       2.732,           0,         2.5                 
   1,   4,  22,       2.624,           0,         2.5                 
   1,   4,  23,       2.516,           0,         2.5                 
   1,   4,  24,     2.43429,           0,     2.43429                 
   1,   5,   1,       4.892,           0,         2.5                 
   1,   5,   2,       4.784,           0,         2.5                 
   1,   5,   3,       4.676,           0,         2.5                 
   1,   5,   4,       4.568,           0,         2.5                 
   1,   5,   5,        4.46,           0,         2.5                 
   1,   5,   6,       4.352,           0,         2.5                 
   1,   5,   7,       4.244,           0,         2.5                 
   1,   5,   8,       4.136,           0,         2.5                 
   1,   5,   9,       4.028,           0,         2.5                 
   1,   5,  10,        3.92,           0,         2.5                 
   1,   5,  11,       3.812,           0,         2.5                 
   1,   5,  12,       3.704,           0,         2.5                 
   1,   5,  13,       3.596,           0,         2.5                 
   1,   5,  14,       3.488,           0,         2.5                 
   1,   5,  15,        3.38,           0,         2.5                 
   1,   5,  16,       3.272,           0,         2.5                 
   1,   5,  17,       3.164,           0,         2.5                 
   1,   5,  18,       3.056,           0,         2.5                 
   1,   5,  19,       2.948,           0,         2.5                 
   1,   5,  20,        2.84,           0,         2.5                 
   1,   5,  21,       2.732,           0,         2.5                 
   1,   5,  22,       2.624,           0,         2.5                 
   1,   5,  23,       2.516,           0,         2.5                 
   1,   5,  24,     2.43429,           0,     2.43429                 
   1,   6,   1,       4.892,           0,         2.5                 
   1,   6,   2,       4.784,           0,         2.5                 
   1,   6,   3,       4.676,           0,         2.5                 
   1,   6,   4,       4.568,           0,         2.5                 
   1,   6,   5,        4.46,           0,         2.5                 
   1,   6,   6,       4.352,           0,         2.5                 
   1,   6,   7,       4.244,           0,         2.5                 
   1,   6,   8,       4.136,           0,         2.5                 
   1,   6,   9,       4.028,           0,         2.5                 
   1,   6,  10,        3.92,           0,         2.5                 
   1,   6,  11,       3.812,           0,         2.5                 
   1,   6,  12,       3.704,           0,         2.5                 
   1,   6,  13,       3.596,           0,         2.5                 
   1,   6,  14,       3.488,           0,         2.5                 
   1,   6,  15,        3.38,           0,         2.5                 
   1,   6,  16,       3.272,           0,         2.5                 
   1,   6,  17,       3.164,           0,         2.5                 
   1,   6,  18,       3.056,           0,         2.5                 
   1,   6,  19,       2.948,           0,         2.5                 
   1,   6,  20,        2.84,           0,         2.5                 
   1,   6,  21,       2.732,           0,         2.5                 
   1,   6,  22,       2.624,           0,         2.5                 
   1,   6,  23,       2.516,           0,         2.5                 
   1,   6,  24,     2.43429,           0,     2.43429                 
   1,   7,   1,       4.892,           0,         2.5                 
   1,   7,   2,       4.784,           0,         2.5                 
   1,   7,   3,       4.676,           0,         2.5                 
   1,   7,   4,       4.568,           0,         2.5                 
   1,   7,   5,        4.46,           0,         2.5                 
   1,   7,   6,       4.352,           0,         2.5                 
   1,   7,   7,       4.244,           0,         2.5                 
   1,   7,   8,       4.136,           0,         2.5                 
   1,   7,   9,       4.028,           0,         2.5                 
   1,   7,  10,        3.92,           0,         2.5                 
   1,   7,  11,       3.812,           0,         2.5                 
   1,   7,  12,       3.704,           0,         2.5                 
   1,   7,  13,       3.596,           0,         2.5                 
   1,   7,  14,       3.488,           0,         2.5                 
   1,   7,  15,        3.38,           0,         2.5                 
   1,   7,  16,       3.272,           0,         2.5                 
   1,   7,  17,       3.164,           0,         2.5                 
   1,   7,  18,       3.056,           0,         2.5                 
   1,   7,  19,       2.948,           0,         2.5                 
   1,   7,  20,        2.84,           0,         2.5                 
   1,   7,  21,       2.732,           0,         2.5                 
   1,   7,  22,       2.624,           0,         2.5                 
   1,   7,  23,       2.516,           0,         2.5                 
   1,   7,  24,     2.43429,           0,     2.43429                 
   2,   1,   1,      3.3368,           0,         2.5                 
   2,   1,   2,      3.2288,           0,         2.5                 
   2,   1,   3,      3.1208,           0,         2.5                 
   2,   1,   4,      3.0128,           0,         2.5                 
   2,   1,   5,      2.9048,           0,         2.5                 
   2,   1,   6,      2.7968,           0,         2.5                 
   2,   1,   7,      2.6888,           0,         2.5                 
   2,   1,   8,      2.5808,           0,         2.5                 
   2,   1,   9,      2.4728,           0,         2.5                 
   2,   1,  10,      2.3648,           0,         2.5                 
   2,   1,  11,      2.2568,           0,         2.5                 
   2,   1,  12,      2.1488,           0,         2.5                 
   2,   1,  13,      2.0408,           0,         2.5                 
   2,   1,  14,      1.9328,           0,         2.5                 
   2,   1,  15,      1.8248,           0,         2.5                 
   2,   1,  16,      1.7168,           0,         2.5                 
   2,   1,  17,      1.6088,           0,         2.5                 
   2,   1,  18,      1.5008,           0,         2.5                 
   2,   1,  19,     1.46743,           0,     2.31343                 
   2,   1,  20,     1.43863,           0,     2.11543                 
   2,   1,  21,     1.40983,           0,     1.91743                 
   2,   1,  22,     1.38103,           0,     1.71943                 
   2,   1,  23,     1.35223,           0,     1.52143                 
   2,   1,  24,     1.32343,           0,     1.32343                 
   2,   2,   1,      2.9912,           0,         2.5                 
   2,   2,   2,      2.8832,           0,         2.5                 
   2,   2,   3,      2.7752,           0,         2.5                 
   2,   2,   4,      2.6672,           0,         2.5                 
   2,   2,   5,      2.5592,           0,         2.5                 
   2,   2,   6,      2.4512,           0,         2.5                 
   2,   2,   7,      2.3432,           0,         2.5                 
   2,   2,   8,      2.2352,           0,         2.5                 
   2,   2,   9,      2.1272,           0,         2.5                 
   2,   2,  10,      2.0192,           0,         2.5                 
   2,   2,  11,      1.9112,           0,         2.5                 
   2,   2,  12,      1.8032,           0,         2.5                 
   2,   2,  13,      1.6952,           0,         2.5                 
   2,   2,  14,      1.5872,           0,         2.5                 
   2,   2,  15,      1.4792,           0,         2.5                 
   2,   2,  16,      1.3712,           0,         2.5                 
   2,   2,  17,      1.2632,           0,         2.5                 
   2,   2,  18,      1.2344,           0,       2.302                 
   2,   2,  19,      1.2056,           0,       2.104                 
   2,   2,  20,      1.1768,           0,       1.906                 
   2,   2,  21,       1.148,           0,       1.708                 
   2,   2,  22,      1.1192,           0,        1.51                 
   2,   2,  23,      1.0904,           0,       1.312                 
   2,   2,  24,      1.0616,           0,       1.114                 
   2,   3,   1,      2.6456,           0,         2.5                 
   2,   3,   2,      2.5376,           0,         2.5                 
   2,   3,   3,      2.4296,           0,         2.5                 
   2,   3,   4,      2.3216,           0,         2.5                 
   2,   3,   5,      2.2136,           0,         2.5                 
   2,   3,   6,      2.1056,           0,         2.5                 
   2,   3,   7,      1.9976,           0,         2.5                 
   2,   3,   8,      1.8896,           0,         2.5                 
   2,   3,   9,      1.7816,           0,         2.5                 
   2,   3,  10,      1.6736,           0,         2.5                 
   2,   3,  11,      1.5656,           0,         2.5                 
   2,   3,  12,      1.4576,           0,         2.5                 
   2,   3,  13,      1.3496,           0,         2.5                 
   2,   3,  14,      1.2416,           0,         2.5                 
   2,   3,  15,      1.1336,           0,         2.5                 
   2,   3,  16,      1.0256,           0,         2.5                 
   2,   3,  17,      0.9968,           0,       2.302                 
   2,   3,  18,       0.968,           0,       2.104                 
   2,   3,  19,      0.9392,           0,       1.906                 
   2,   3,  20,      0.9104,           0,       1.708                 
   2,   3,  21,      0.8816,           0,        1.51                 
   2,   3,  22,      0.8528,           0,       1.312                 
   2,   3,  23,       0.824,           0,       1.114                 
   2,   3,  24,      0.7952,           0,       0.916                 
   2,   4,   1,     2.32629,           0,     2.43429                 
   2,   4,   2,     2.21829,           0,     2.43429                 
   2,   4,   3,     2.11029,           0,     2.43429                 
   2,   4,   4,     2.00229,           0,     2.43429                 
   2,   4,   5,     1.89429,           0,     2.43429                 
   2,   4,   6,     1.78629,           0,     2.43429                 
   2,   4,   7,     1.67829,           0,     2.43429                 
   2,   4,   8,     1.57029,           0,     2.43429                 
   2,   4,   9,     1.46229,           0,     2.43429                 
   2,   4,  10,     1.35429,           0,     2.43429                 
   2,   4,  11,     1.24629,           0,     2.43429                 
   2,   4,  12,     1.13829,           0,     2.43429                 
   2,   4,  13,     1.03029,           0,     2.43429                 
   2,   4,  14,    0.922286,           0,     2.43429                 
   2,   4,  15,    0.814286,           0,     2.43429                 
   2,   4,  16,    0.785486,           0,     2.23629                 
   2,   4,  17,    0.756686,           0,     2.03829                 
   2,   4,  18,    0.727886,           0,     1.84029                 
   2,   4,  19,    0.699086,           0,     1.64229                 
   2,   4,  20,    0.670286,           0,     1.44429                 
   2,   4,  21,    0.641486,           0,     1.24629                 
   2,   4,  22,    0.612686,           0,     1.04829                 
   2,   4,  23,    0.583886,           0,    0.850286                 
   2,   4,  24,    0.555086,           0,    0.652286                 
   2,   5,   1,     2.07943,           0,     2.18743                 
   2,   5,   2,     1.97143,           0,     2.18743                 
   2,   5,   3,     1.86343,           0,     2.18743                 
   2,   5,   4,     1.75543,           0,     2.18743                 
   2,   5,   5,     1.64743,           0,     2.18743                 
   2,   5,   6,     1.53943,           0,     2.18743                 
   2,   5,   7,     1.43143,           0,     2.18743                 
   2,   5,   8,     1.32343,           0,     2.18743                 
   2,   5,   9,     1.21543,           0,     2.18743                 
   2,   5,  10,     1.10743,           0,     2.18743                 
   2,   5,  11,    0.999429,           0,     2.18743                 
   2,   5,  12,    0.891429,           0,     2.18743                 
   2,   5,  13,    0.783429,           0,     2.18743                 
   2,   5,  14,    0.675429,           0,     2.18743                 
   2,   5,  15,    0.567429,           0,     2.18743                 
   2,   5,  16,    0.538629,           0,     1.98943                 
   2,   5,  17,    0.509829,           0,     1.79143                 
   2,   5,  18,    0.481029,           0,     1.59343                 
   2,   5,  19,    0.452229,           0,     1.39543                 
   2,   5,  20,    0.423429,           0,     1.19743                 
   2,   5,  21,    0.394629,           0,    0.999429                 
   2,   5,  22,    0.365829,           0,    0.801429                 
   2,   5,  23,    0.337029,           0,    0.603429                 
   2,   5,  24,    0.308229,           0,    0.405429                 
   2,   6,   1,     1.83257,           0,     1.94057                 
   2,   6,   2,     1.72457,           0,     1.94057                 
   2,   6,   3,     1.61657,           0,     1.94057                 
   2,   6,   4,     1.50857,           0,     1.94057                 
   2,   6,   5,     1.40057,           0,     1.94057                 
   2,   6,   6,     1.29257,           0,     1.94057                 
   2,   6,   7,     1.18457,           0,     1.94057                 
   2,   6,   8,     1.07657,           0,     1.94057                 
   2,   6,   9,    0.968571,           0,     1.94057                 
   2,   6,  10,    0.860571,           0,     1.94057                 
   2,   6,  11,    0.752571,           0,     1.94057                 
   2,   6,  12,    0.644571,           0,     1.94057                 
   2,   6,  13,    0.536571,           0,     1.94057                 
   2,   6,  14,    0.428571,           0,     1.94057                 
   2,   6,  15,    0.320571,           0,     1.94057                 
   2,   6,  16,    0.291771,           0,     1.74257                 
   2,   6,  17,    0.262971,           0,     1.54457                 
   2,   6,  18,    0.234171,           0,     1.34657                 
   2,   6,  19,    0.205371,           0,     1.14857                 
   2,   6,  20,    0.176571,           0,    0.950571                 
   2,   6,  21,    0.147771,           0,    0.752571                 
   2,   6,  22,    0.118971,           0,    0.554571                 
   2,   6,  23,   0.0901714,           0,    0.356571                 
   2,   6,  24,   0.0613714,           0,    0.158571                 
   2,   7,   1,        1.58,           0,       1.708                 
   2,   7,   2,       1.472,           0,       1.708                 
   2,   7,   3,       1.364,           0,       1.708                 
   2,   7,   4,       1.256,           0,       1.708                 
   2,   7,   5,       1.148,           0,       1.708                 
   2,   7,   6,        1.04,           0,       1.708                 
   2,   7,   7,       0.932,           0,       1.708                 
   2,   7,   8,       0.824,           0,       1.708                 
   2,   7,   9,       0.716,           0,       1.708                 
   2,   7,  10,       0.608,           0,       1.708                 
   2,   7,  11,         0.5,           0,       1.708                 
   2,   7,  12,       0.392,           0,       1.708                 
   2,   7,  13,       0.284,           0,       1.708                 
   2,   7,  14,       0.176,           0,       1.708                 
   2,   7,  15,       0.068,           0,       1.708                 
   2,   7,  16,      0.0096,           0,       1.584                 
   2,   7,  17,           0,           0,       1.386                 
   2,   7,  18,           0,           0,       1.188                 
   2,   7,  19,           0,           0,        0.99                 
   2,   7,  20,           0,           0,       0.792                 
   2,   7,  21,           0,           0,       0.594                 
   2,   7,  22,           0,           0,       0.396                 
   2,   7,  23,           0,           0,       0.198                 
   2,   7,  24,           0,           0,           0                 
   3,   1,   1,       1.956,           0,       2.064                 
   3,   1,   2,       1.848,           0,       2.064                 
   3,   1,   3,        1.74,           0,       2.064                 
   3,   1,   4,       1.632,           0,       2.064                 
   3,   1,   5,       1.524,           0,       2.064                 
   3,   1,   6,       1.416,           0,       2.064                 
   3,   1,   7,       1.308,           0,       2.064                 
   3,   1,   8,         1.2,           0,       2.064                 
   3,   1,   9,       1.092,           0,       2.064                 
   3,   1,  10,       0.984,           0,       2.064                 
   3,   1,  11,       0.876,           0,       2.064                 
   3,   1,  12,       0.768,           0,       2.064                 
   3,   1,  13,        0.66,           0,       2.064                 
   3,   1,  14,       0.552,           0,       2.064                 
   3,   1,  15,       0.444,           0,       2.064                 
   3,   1,  16,      0.4152,           0,       1.866                 
   3,   1,  17,      0.3864,           0,       1.668                 
   3,   1,  18,      0.3576,           0,        1.47                 
   3,   1,  19,      0.3288,           0,       1.272                 
   3,   1,  20,         0.3,           0,       1.074                 
   3,   1,  21,      0.2712,           0,       0.876                 
   3,   1,  22,      0.2424,           0,       0.678                 
   3,   1,  23,      0.2136,           0,        0.48                 
   3,   1,  24,      0.1848,           0,       0.282                 
   3,   2,   1,     1.46229,           0,     1.57029                 
   3,   2,   2,     1.35429,           0,     1.57029                 
   3,   2,   3,     1.24629,           0,     1.57029                 
   3,   2,   4,     1.13829,           0,     1.57029                 
   3,   2,   5,     1.03029,           0,     1.57029                 
   3,   2,   6,    0.922286,           0,     1.57029                 
   3,   2,   7,    0.814286,           0,     1.57029                 
   3,   2,   8,    0.706286,           0,     1.57029                 
   3,   2,   9,    0.598286,           0,     1.57029                 
   3,   2,  10,    0.490286,           0,     1.57029                 
   3,   2,  11,    0.382286,           0,     1.57029                 
   3,   2,  12,    0.274286,           0,     1.57029                 
   3,   2,  13,    0.166286,           0,     1.57029                 
   3,   2,  14,   0.0582857,           0,     1.57029                 
   3,   2,  15,      0.0288,           0,     1.57029                 
   3,   2,  16,      0.0288,           0,     1.57029                 
   3,   2,  17,      0.0288,           0,       1.386                 
   3,   2,  18,      0.0288,           0,       1.188                 
   3,   2,  19,           0,           0,        0.99                 
   3,   2,  20,           0,           0,       0.792                 
   3,   2,  21,           0,           0,       0.594                 
   3,   2,  22,           0,           0,       0.396                 
   3,   2,  23,           0,           0,       0.198                 
   3,   2,  24,           0,           0,           0                 
   3,   3,   1,      0.9536,           0,       1.114                 
   3,   3,   2,      0.8456,           0,       1.114                 
   3,   3,   3,      0.7376,           0,       1.114                 
   3,   3,   4,      0.6296,           0,       1.114                 
   3,   3,   5,      0.5216,           0,       1.114                 
   3,   3,   6,      0.4136,           0,       1.114                 
   3,   3,   7,      0.3056,           0,       1.114                 
   3,   3,   8,      0.1976,           0,       1.114                 
   3,   3,   9,      0.0896,           0,       1.114                 
   3,   3,  10,           0,           0,       1.114                 
   3,   3,  11,           0,           0,       1.114                 
   3,   3,  12,           0,           0,       1.114                 
   3,   3,  13,           0,           0,       1.114                 
   3,   3,  14,           0,           0,       1.114                 
   3,   3,  15,           0,           0,       1.114                 
   3,   3,  16,           0,           0,       1.114                 
   3,   3,  17,           0,           0,       1.114                 
   3,   3,  18,           0,           0,       1.114                 
   3,   3,  19,           0,           0,        0.99                 
   3,   3,  20,           0,           0,       0.792                 
   3,   3,  21,           0,           0,       0.594                 
   3,   3,  22,           0,           0,       0.396                 
   3,   3,  23,           0,           0,       0.198                 
   3,   3,  24,           0,           0,           0                 
   3,   4,   1,    0.447086,           0,    0.652286                 
   3,   4,   2,    0.339086,           0,    0.652286                 
   3,   4,   3,    0.231086,           0,    0.652286                 
   3,   4,   4,    0.123086,           0,    0.652286                 
   3,   4,   5,   0.0150857,           0,    0.652286                 
   3,   4,   6,           0,           0,    0.652286                 
   3,   4,   7,           0,           0,    0.652286                 
   3,   4,   8,           0,           0,    0.652286                 
   3,   4,   9,           0,           0,    0.652286                 
   3,   4,  10,           0,           0,    0.652286                 
   3,   4,  11,           0,           0,    0.652286                 
   3,   4,  12,           0,           0,    0.652286                 
   3,   4,  13,           0,           0,    0.652286                 
   3,   4,  14,           0,           0,    0.652286                 
   3,   4,  15,           0,           0,    0.652286                 
   3,   4,  16,           0,           0,    0.652286                 
   3,   4,  17,           0,           0,    0.652286                 
   3,   4,  18,           0,           0,    0.652286                 
   3,   4,  19,           0,           0,    0.652286                 
   3,   4,  20,           0,           0,    0.652286                 
   3,   4,  21,           0,           0,       0.594                 
   3,   4,  22,           0,           0,       0.396                 
   3,   4,  23,           0,           0,       0.198                 
   3,   4,  24,           0,           0,           0                 
   3,   5,   1,           0,           0,    0.207429                 
   3,   5,   2,           0,           0,    0.207429                 
   3,   5,   3,           0,           0,    0.207429                 
   3,   5,   4,           0,           0,    0.207429                 
   3,   5,   5,           0,           0,    0.207429                 
   3,   5,   6,           0,           0,    0.207429                 
   3,   5,   7,           0,           0,    0.207429                 
   3,   5,   8,           0,           0,    0.207429                 
   3,   5,   9,           0,           0,    0.207429                 
   3,   5,  10,           0,           0,    0.207429                 
   3,   5,  11,           0,           0,    0.207429                 
   3,   5,  12,           0,           0,    0.207429                 
   3,   5,  13,           0,           0,    0.207429                 
   3,   5,  14,           0,           0,    0.207429                 
   3,   5,  15,           0,           0,    0.207429                 
   3,   5,  16,           0,           0,    0.207429                 
   3,   5,  17,           0,           0,    0.207429                 
   3,   5,  18,           0,           0,    0.207429                 
   3,   5,  19,           0,           0,    0.207429                 
   3,   5,  20,           0,           0,    0.207429                 
   3,   5,  21,           0,           0,    0.207429                 
   3,   5,  22,           0,           0,    0.207429                 
   3,   5,  23,           0,           0,       0.198                 
   3,   5,  24,           0,           0,           0                 
   3,   6,   1,           0,           0,           0                 
   3,   6,   2,           0,           0,           0                 
   3,   6,   3,           0,           0,           0                 
   3,   6,   4,           0,           0,           0                 
   3,   6,   5,           0,           0,           0                 
   3,   6,   6,           0,           0,           0                 
   3,   6,   7,           0,           0,           0                 
   3,   6,   8,           0,           0,           0                 
   3,   6,   9,           0,           0,           0                 
   3,   6,  10,           0,           0,           0                 
   3,   6,  11,           0,           0,           0                 
   3,   6,  12,           0,           0,           0                 
   3,   6,  13,           0,           0,           0                 
   3,   6,  14,           0,           0,           0                 
   3,   6,  15,           0,           0,           0                 
   3,   6,  16,           0,           0,           0                 
   3,   6,  17,           0,           0,           0                 
   3,   6,  18,           0,           0,           0                 
   3,   6,  19,           0,           0,           0                 
   3,   6,  20,           0,           0,           0                 
   3,   6,  21,           0,           0,           0                 
   3,   6,  22,           0,           0,           0                 
   3,   6,  23,           0,           0,           0                 
   3,   6,  24,           0,           0,           0                 
   3,   7,   1,           0,           0,           0                 
   3,   7,   2,           0,           0,           0                 
   3,   7,   3,           0,           0,           0                 
   3,   7,   4,           0,           0,           0                 
   3,   7,   5,           0,           0,           0                 
   3,   7,   6,           0,           0,           0                 
   3,   7,   7,           0,           0,           0                 
   3,   7,   8,           0,           0,           0                 
   3,   7,   9,           0,           0,           0                 
   3,   7,  10,           0,           0,           0                 
   3,   7,  11,           0,           0,           0                 
   3,   7,  12,           0,           0,           0                 
   3,   7,  13,           0,           0,           0                 
   3,   7,  14,           0,           0,           0                 
   3,   7,  15,           0,           0,           0                 
   3,   7,  16,           0,           0,           0                 
   3,   7,  17,           0,           0,           0                 
   3,   7,  18,           0,           0,           0                 
   3,   7,  19,           0,           0,           0                 
   3,   7,  20,           0,           0,           0                 
   3,   7,  21,           0,           0,           0                 
   3,   7,  22,           0,           0,           0                 
   3,   7,  23,           0,           0,           0                 
   3,   7,  24,           0,           0,           0                 
   4,   1,   1,    0.845143,           0,    0.953143                 
   4,   1,   2,    0.737143,           0,    0.953143                 
   4,   1,   3,    0.629143,           0,    0.953143                 
   4,   1,   4,    0.521143,           0,    0.953143                 
   4,   1,   5,    0.413143,           0,    0.953143                 
   4,   1,   6,    0.305143,           0,    0.953143                 
   4,   1,   7,    0.197143,           0,    0.953143                 
   4,   1,   8,   0.0891429,           0,    0.953143                 
   4,   1,   9,           0,           0,    0.953143                 
   4,   1,  10,           0,           0,    0.953143                 
   4,   1,  11,           0,           0,    0.953143                 
   4,   1,  12,           0,           0,    0.953143                 
   4,   1,  13,           0,           0,    0.953143                 
   4,   1,  14,           0,           0,    0.953143                 
   4,   1,  15,           0,           0,    0.953143                 
   4,   1,  16,           0,           0,    0.953143                 
   4,   1,  17,           0,           0,    0.953143                 
   4,   1,  18,           0,           0,    0.953143                 
   4,   1,  19,           0,           0,    0.953143                 
   4,   1,  20,           0,           0,       0.792                 
   4,   1,  21,           0,           0,       0.594                 
   4,   1,  22,           0,           0,       0.396                 
   4,   1,  23,           0,           0,       0.198                 
   4,   1,  24,           0,           0,           0                 
   4,   2,   1,    0.104571,           0,    0.212571                 
   4,   2,   2,           0,           0,    0.212571                 
   4,   2,   3,           0,           0,    0.212571                 
   4,   2,   4,           0,           0,    0.212571                 
   4,   2,   5,           0,           0,    0.212571                 
   4,   2,   6,           0,           0,    0.212571                 
   4,   2,   7,           0,           0,    0.212571                 
   4,   2,   8,           0,           0,    0.212571                 
   4,   2,   9,           0,           0,    0.212571                 
   4,   2,  10,           0,           0,    0.212571                 
   4,   2,  11,           0,           0,    0.212571                 
   4,   2,  12,           0,           0,    0.212571                 
   4,   2,  13,           0,           0,    0.212571                 
   4,   2,  14,           0,           0,    0.212571                 
   4,   2,  15,           0,           0,    0.212571                 
   4,   2,  16,           0,           0,    0.212571                 
   4,   2,  17,           0,           0,    0.212571                 
   4,   2,  18,           0,           0,    0.212571                 
   4,   2,  19,           0,           0,    0.212571                 
   4,   2,  20,           0,           0,    0.212571                 
   4,   2,  21,           0,           0,    0.212571                 
   4,   2,  22,           0,           0,    0.212571                 
   4,   2,  23,           0,           0,       0.198                 
   4,   2,  24,           0,           0,           0                 
   4,   3,   1,           0,           0,           0                 
   4,   3,   2,           0,           0,           0                 
   4,   3,   3,           0,           0,           0                 
   4,   3,   4,           0,           0,           0                 
   4,   3,   5,           0,           0,           0                 
   4,   3,   6,           0,           0,           0                 
   4,   3,   7,           0,           0,           0                 
   4,   3,   8,           0,           0,           0                 
   4,   3,   9,           0,           0,           0                 
   4,   3,  10,           0,           0,           0                 
   4,   3,  11,           0,           0,           0                 
   4,   3,  12,           0,           0,           0                 
   4,   3,  13,           0,           0,           0                 
   4,   3,  14,           0,           0,           0                 
   4,   3,  15,           0,           0,           0                 
   4,   3,  16,           0,           0,           0                 
   4,   3,  17,           0,           0,           0                 
   4,   3,  18,           0,           0,           0                 
   4,   3,  19,           0,           0,           0                 
   4,   3,  20,           0,           0,           0                 
   4,   3,  21,           0,           0,           0                 
   4,   3,  22,           0,           0,           0                 
   4,   3,  23,           0,           0,           0                 
   4,   3,  24,           0,           0,           0                 
   4,   4,   1,           0,           0,           0                 
   4,   4,   2,           0,           0,           0                 
   4,   4,   3,           0,           0,           0                 
   4,   4,   4,           0,           0,           0                 
   4,   4,   5,           0,           0,           0                 
   4,   4,   6,           0,           0,           0                 
   4,   4,   7,           0,           0,           0                 
   4,   4,   8,           0,           0,           0                 
   4,   4,   9,           0,           0,           0                 
   4,   4,  10,           0,           0,           0                 
   4,   4,  11,           0,           0,           0                 
   4,   4,  12,           0,           0,           0                 
   4,   4,  13,           0,           0,           0                 
   4,   4,  14,           0,           0,           0                 
   4,   4,  15,           0,           0,           0                 
   4,   4,  16,           0,           0,           0                 
   4,   4,  17,           0,           0,           0                 
   4,   4,  18,           0,           0,           0                 
   4,   4,  19,           0,           0,           0                 
   4,   4,  20,           0,           0,           0                 
   4,   4,  21,           0,           0,           0                 
   4,   4,  22,           0,           0,           0                 
   4,   4,  23,           0,           0,           0                 
   4,   4,  24,           0,           0,           0                 
   4,   5,   1,           0,           0,           0                 
   4,   5,   2,           0,           0,           0                 
   4,   5,   3,           0,           0,           0                 
   4,   5,   4,           0,           0,           0                 
   4,   5,   5,           0,           0,           0                 
   4,   5,   6,           0,           0,           0                 
   4,   5,   7,           0,           0,           0                 
   4,   5,   8,           0,           0,           0                 
   4,   5,   9,           0,           0,           0                 
   4,   5,  10,           0,           0,           0                 
   4,   5,  11,           0,           0,           0                 
   4,   5,  12,           0,           0,           0                 
   4,   5,  13,           0,           0,           0                 
   4,   5,  14,           0,           0,           0                 
   4,   5,  15,           0,           0,           0                 
   4,   5,  16,           0,           0,           0                 
   4,   5,  17,           0,           0,           0                 
   4,   5,  18,           0,           0,           0                 
   4,   5,  19,           0,           0,           0                 
   4,   5,  20,           0,           0,           0                 
   4,   5,  21,           0,           0,           0                 
   4,   5,  22,           0,           0,           0                 
   4,   5,  23,           0,           0,           0                 
   4,   5,  24,           0,           0,           0                 
   4,   6,   1,           0,           0,           0                 
   4,   6,   2,           0,           0,           0                 
   4,   6,   3,           0,           0,           0                 
   4,   6,   4,           0,           0,           0                 
   4,   6,   5,           0,           0,           0                 
   4,   6,   6,           0,           0,           0                 
   4,   6,   7,           0,           0,           0                 
   4,   6,   8,           0,           0,           0                 
   4,   6,   9,           0,           0,           0                 
   4,   6,  10,           0,           0,           0                 
   4,   6,  11,           0,           0,           0                 
   4,   6,  12,           0,           0,           0                 
   4,   6,  13,           0,           0,           0                 
   4,   6,  14,           0,           0,           0                 
   4,   6,  15,           0,           0,           0                 
   4,   6,  16,           0,           0,           0                 
   4,   6,  17,           0,           0,           0                 
   4,   6,  18,           0,           0,           0                 
   4,   6,  19,           0,           0,           0                 
   4,   6,  20,           0,           0,           0                 
   4,   6,  21,           0,           0,           0                 
   4,   6,  22,           0,           0,           0                 
   4,   6,  23,           0,           0,           0                 
   4,   6,  24,           0,           0,           0                 
   4,   7,   1,           0,           0,           0                 
   4,   7,   2,           0,           0,           0                 
   4,   7,   3,           0,           0,           0                 
   4,   7,   4,           0,           0,           0                 
   4,   7,   5,           0,           0,           0                 
   4,   7,   6,           0,           0,           0                 
   4,   7,   7,           0,           0,           0                 
   4,   7,   8,           0,           0,           0                 
   4,   7,   9,           0,           0,           0                 
   4,   7,  10,           0,           0,           0                 
   4,   7,  11,           0,           0,           0                 
   4,   7,  12,           0,           0,           0                 
   4,   7,  13,           0,           0,           0                 
   4,   7,  14,           0,           0,           0                 
   4,   7,  15,           0,           0,           0                 
   4,   7,  16,           0,           0,           0                 
   4,   7,  17,           0,           0,           0                 
   4,   7,  18,           0,           0,           0                 
   4,   7,  19,           0,           0,           0                 
   4,   7,  20,           0,           0,           0                 
   4,   7,  21,           0,           0,           0                 
   4,   7,  22,           0,           0,           0                 
   4,   7,  23,           0,           0,           0                 
   4,   7,  24,           0,           0,           0                 
   5,   1,   1,           0,           0,           0                 
   5,   1,   2,           0,           0,           0                 
   5,   1,   3,           0,           0,           0                 
   5,   1,   4,           0,           0,           0                 
   5,   1,   5,           0,           0,           0                 
   5,   1,   6,           0,           0,           0                 
   5,   1,   7,           0,           0,           0                 
   5,   1,   8,           0,           0,           0                 
   5,   1,   9,           0,           0,           0                 
   5,   1,  10,           0,           0,           0                 
   5,   1,  11,           0,           0,           0                 
   5,   1,  12,           0,           0,           0                 
   5,   1,  13,           0,           0,           0                 
   5,   1,  14,           0,           0,           0                 
   5,   1,  15,           0,           0,           0                 
   5,   1,  16,           0,           0,           0                 
   5,   1,  17,           0,           0,           0                 
   5,   1,  18,           0,           0,           0                 
   5,   1,  19,           0,           0,           0                 
   5,   1,  20,           0,           0,           0                 
   5,   1,  21,           0,           0,           0                 
   5,   1,  22,           0,           0,           0                 
   5,   1,  23,           0,           0,           0                 
   5,   1,  24,           0,           0,           0                 
   5,   2,   1,           0,           0,           0                 
   5,   2,   2,           0,           0,           0                 
   5,   2,   3,           0,           0,           0                 
   5,   2,   4,           0,           0,           0                 
   5,   2,   5,           0,           0,           0                 
   5,   2,   6,           0,           0,           0                 
   5,   2,   7,           0,           0,           0                 
   5,   2,   8,           0,           0,           0                 
   5,   2,   9,           0,           0,           0                 
   5,   2,  10,           0,           0,           0                 
   5,   2,  11,           0,           0,           0                 
   5,   2,  12,           0,           0,           0                 
   5,   2,  13,           0,           0,           0                 
   5,   2,  14,           0,           0,           0                 
   5,   2,  15,           0,           0,           0                 
   5,   2,  16,           0,           0,           0                 
   5,   2,  17,           0,           0,           0                 
   5,   2,  18,           0,           0,           0                 
   5,   2,  19,           0,           0,           0                 
   5,   2,  20,           0,           0,           0                 
   5,   2,  21,           0,           0,           0                 
   5,   2,  22,           0,           0,           0                 
   5,   2,  23,           0,           0,           0                 
   5,   2,  24,           0,           0,           0                 
   5,   3,   1,           0,           0,           0                 
   5,   3,   2,           0,           0,           0                 
   5,   3,   3,           0,           0,           0                 
   5,   3,   4,           0,           0,           0                 
   5,   3,   5,           0,           0,           0                 
   5,   3,   6,           0,           0,           0                 
   5,   3,   7,           0,           0,           0                 
   5,   3,   8,           0,           0,           0                 
   5,   3,   9,           0,           0,           0                 
   5,   3,  10,           0,           0,           0                 
   5,   3,  11,           0,           0,           0                 
   5,   3,  12,           0,           0,           0                 
   5,   3,  13,           0,           0,           0                 
   5,   3,  14,           0,           0,           0                 
   5,   3,  15,           0,           0,           0                 
   5,   3,  16,           0,           0,           0                 
   5,   3,  17,           0,           0,           0                 
   5,   3,  18,           0,           0,           0                 
   5,   3,  19,           0,           0,           0                 
   5,   3,  20,           0,           0,           0                 
   5,   3,  21,           0,           0,           0                 
   5,   3,  22,           0,           0,           0                 
   5,   3,  23,           0,           0,           0                 
   5,   3,  24,           0,           0,           0                 
   5,   4,   1,           0,           0,           0                 
   5,   4,   2,           0,           0,           0                 
   5,   4,   3,           0,           0,           0                 
   5,   4,   4,           0,           0,           0                 
   5,   4,   5,           0,           0,           0                 
   5,   4,   6,           0,           0,           0                 
   5,   4,   7,           0,           0,           0                 
   5,   4,   8,           0,           0,           0                 
   5,   4,   9,           0,           0,           0                 
   5,   4,  10,           0,           0,           0                 
   5,   4,  11,           0,           0,           0                 
   5,   4,  12,           0,           0,           0                 
   5,   4,  13,           0,           0,           0                 
   5,   4,  14,           0,           0,           0                 
   5,   4,  15,           0,           0,           0                 
   5,   4,  16,           0,           0,           0                 
   5,   4,  17,           0,           0,           0                 
   5,   4,  18,           0,           0,           0                 
   5,   4,  19,           0,           0,           0                 
   5,   4,  20,           0,           0,           0                 
   5,   4,  21,           0,           0,           0                 
   5,   4,  22,           0,           0,           0                 
   5,   4,  23,           0,           0,           0                 
   5,   4,  24,           0,           0,           0                 
   5,   5,   1,           0,           0,           0                 
   5,   5,   2,           0,           0,           0                 
   5,   5,   3,           0,           0,           0                 
   5,   5,   4,           0,           0,           0                 
   5,   5,   5,           0,           0,           0                 
   5,   5,   6,           0,           0,           0                 
   5,   5,   7,           0,           0,           0                 
   5,   5,   8,           0,           0,           0                 
   5,   5,   9,           0,           0,           0                 
   5,   5,  10,           0,           0,           0                 
   5,   5,  11,           0,           0,           0                 
   5,   5,  12,           0,           0,           0                 
   5,   5,  13,           0,           0,           0                 
   5,   5,  14,           0,           0,           0                 
   5,   5,  15,           0,           0,           0                 
   5,   5,  16,           0,           0,           0                 
   5,   5,  17,           0,           0,           0                 
   5,   5,  18,           0,           0,           0                 
   5,   5,  19,           0,           0,           0                 
   5,   5,  20,           0,           0,           0                 
   5,   5,  21,           0,           0,           0                 
   5,   5,  22,           0,           0,           0                 
   5,   5,  23,           0,           0,           0                 
   5,   5,  24,           0,           0,           0                 
   5,   6,   1,           0,           0,           0                 
   5,   6,   2,           0,           0,           0                 
   5,   6,   3,           0,           0,           0                 
   5,   6,   4,           0,           0,           0                 
   5,   6,   5,           0,           0,           0                 
   5,   6,   6,           0,           0,           0                 
   5,   6,   7,           0,           0,           0                 
   5,   6,   8,           0,           0,           0                 
   5,   6,   9,           0,           0,           0                 
   5,   6,  10,           0,           0,           0                 
   5,   6,  11,           0,           0,           0                 
   5,   6,  12,           0,           0,           0                 
   5,   6,  13,           0,           0,           0                 
   5,   6,  14,           0,           0,           0                 
   5,   6,  15,           0,           0,           0                 
   5,   6,  16,           0,           0,           0                 
   5,   6,  17,           0,           0,           0                 
   5,   6,  18,           0,           0,           0                 
   5,   6,  19,           0,           0,           0                 
   5,   6,  20,           0,           0,           0                 
   5,   6,  21,           0,           0,           0                 
   5,   6,  22,           0,           0,           0                 
   5,   6,  23,           0,           0,           0                 
   5,   6,  24,           0,           0,           0                 
   5,   7,   1,           0,           0,           0                 
   5,   7,   2,           0,           0,           0                 
   5,   7,   3,           0,           0,           0                 
   5,   7,   4,           0,           0,           0                 
   5,   7,   5,           0,           0,           0                 
   5,   7,   6,           0,           0,           0                 
   5,   7,   7,           0,           0,           0                 
   5,   7,   8,           0,           0,           0                 
   5,   7,   9,           0,           0,           0                 
   5,   7,  10,           0,           0,           0                 
   5,   7,  11,           0,           0,           0                 
   5,   7,  12,           0,           0,           0                 
   5,   7,  13,           0,           0,           0                 
   5,   7,  14,           0,           0,           0                 
   5,   7,  15,           0,           0,           0                 
   5,   7,  16,           0,           0,           0                 
   5,   7,  17,           0,           0,           0                 
   5,   7,  18,           0,           0,           0                 
   5,   7,  19,           0,           0,           0                 
   5,   7,  20,           0,           0,           0                 
   5,   7,  21,           0,           0,           0                 
   5,   7,  22,           0,           0,           0                 
   5,   7,  23,           0,           0,           0                 
   5,   7,  24,           0,           0,           0                 
   6,   1,   1,           0,           0,           0                 
   6,   1,   2,           0,           0,           0                 
   6,   1,   3,           0,           0,           0                 
   6,   1,   4,           0,           0,           0                 
   6,   1,   5,           0,           0,           0                 
   6,   1,   6,           0,           0,           0                 
   6,   1,   7,           0,           0,           0                 
   6,   1,   8,           0,           0,           0                 
   6,   1,   9,           0,           0,           0                 
   6,   1,  10,           0,           0,           0                 
   6,   1,  11,           0,           0,           0                 
   6,   1,  12,           0,           0,           0                 
   6,   1,  13,           0,           0,           0                 
   6,   1,  14,           0,           0,           0                 
   6,   1,  15,           0,           0,           0                 
   6,   1,  16,           0,           0,           0                 
   6,   1,  17,           0,           0,           0                 
   6,   1,  18,           0,           0,           0                 
   6,   1,  19,           0,           0,           0                 
   6,   1,  20,           0,           0,           0                 
   6,   1,  21,           0,           0,           0                 
   6,   1,  22,           0,           0,           0                 
   6,   1,  23,           0,           0,           0                 
   6,   1,  24,           0,           0,           0                 
   6,   2,   1,           0,           0,           0                 
   6,   2,   2,           0,           0,           0                 
   6,   2,   3,           0,           0,           0                 
   6,   2,   4,           0,           0,           0                 
   6,   2,   5,           0,           0,           0                 
   6,   2,   6,           0,           0,           0                 
   6,   2,   7,           0,           0,           0                 
   6,   2,   8,           0,           0,           0                 
   6,   2,   9,           0,           0,           0                 
   6,   2,  10,           0,           0,           0                 
   6,   2,  11,           0,           0,           0                 
   6,   2,  12,           0,           0,           0                 
   6,   2,  13,           0,           0,           0                 
   6,   2,  14,           0,           0,           0                 
   6,   2,  15,           0,           0,           0                 
   6,   2,  16,           0,           0,           0                 
   6,   2,  17,           0,           0,           0                 
   6,   2,  18,           0,           0,           0                 
   6,   2,  19,           0,           0,           0                 
   6,   2,  20,           0,           0,           0                 
   6,   2,  21,           0,           0,           0                 
   6,   2,  22,           0,           0,           0                 
   6,   2,  23,           0,           0,           0                 
   6,   2,  24,           0,           0,           0                 
   6,   3,   1,           0,           0,           0                 
   6,   3,   2,           0,           0,           0                 
   6,   3,   3,           0,           0,           0                 
   6,   3,   4,           0,           0,           0                 
   6,   3,   5,           0,           0,           0                 
   6,   3,   6,           0,           0,           0                 
   6,   3,   7,           0,           0,           0                 
   6,   3,   8,           0,           0,           0                 
   6,   3,   9,           0,           0,           0                 
   6,   3,  10,           0,           0,           0                 
   6,   3,  11,           0,           0,           0                 
   6,   3,  12,           0,           0,           0                 
   6,   3,  13,           0,           0,           0                 
   6,   3,  14,           0,           0,           0                 
   6,   3,  15,           0,           0,           0                 
   6,   3,  16,           0,           0,           0                 
   6,   3,  17,           0,           0,           0                 
   6,   3,  18,           0,           0,           0                 
   6,   3,  19,           0,           0,           0                 
   6,   3,  20,           0,           0,           0                 
   6,   3,  21,           0,           0,           0                 
   6,   3,  22,           0,           0,           0                 
   6,   3,  23,           0,           0,           0                 
   6,   3,  24,           0,           0,           0                 
   6,   4,   1,           0,           0,           0                 
   6,   4,   2,           0,           0,           0                 
   6,   4,   3,           0,           0,           0                 
   6,   4,   4,           0,           0,           0                 
   6,   4,   5,           0,           0,           0                 
   6,   4,   6,           0,           0,           0                 
   6,   4,   7,           0,           0,           0                 
   6,   4,   8,           0,           0,           0                 
   6,   4,   9,           0,           0,           0                 
   6,   4,  10,           0,           0,           0                 
   6,   4,  11,           0,           0,           0                 
   6,   4,  12,           0,           0,           0                 
   6,   4,  13,           0,           0,           0                 
   6,   4,  14,           0,           0,           0                 
   6,   4,  15,           0,           0,           0                 
   6,   4,  16,           0,           0,           0                 
   6,   4,  17,           0,           0,           0                 
   6,   4,  18,           0,           0,           0                 
   6,   4,  19,           0,           0,           0                 
   6,   4,  20,           0,           0,           0                 
   6,   4,  21,           0,           0,           0                 
   6,   4,  22,           0,           0,           0                 
   6,   4,  23,           0,           0,           0                 
   6,   4,  24,           0,           0,           0                 
   6,   5,   1,           0,           0,           0                 
   6,   5,   2,           0,           0,           0                 
   6,   5,   3,           0,           0,           0                 
   6,   5,   4,           0,           0,           0                 
   6,   5,   5,           0,           0,           0                 
   6,   5,   6,           0,           0,           0                 
   6,   5,   7,           0,           0,           0                 
   6,   5,   8,           0,           0,           0                 
   6,   5,   9,           0,           0,           0                 
   6,   5,  10,           0,           0,           0                 
   6,   5,  11,           0,           0,           0                 
   6,   5,  12,           0,           0,           0                 
   6,   5,  13,           0,           0,           0                 
   6,   5,  14,           0,           0,           0                 
   6,   5,  15,           0,           0,           0                 
   6,   5,  16,           0,           0,           0                 
   6,   5,  17,           0,           0,           0                 
   6,   5,  18,           0,           0,           0                 
   6,   5,  19,           0,           0,           0                 
   6,   5,  20,           0,           0,           0                 
   6,   5,  21,           0,           0,           0                 
   6,   5,  22,           0,           0,           0                 
   6,   5,  23,           0,           0,           0                 
   6,   5,  24,           0,           0,           0                 
   6,   6,   1,           0,           0,           0                 
   6,   6,   2,           0,           0,           0                 
   6,   6,   3,           0,           0,           0                 
   6,   6,   4,           0,           0,           0                 
   6,   6,   5,           0,           0,           0                 
   6,   6,   6,           0,           0,           0                 
   6,   6,   7,           0,           0,           0                 
   6,   6,   8,           0,           0,           0                 
   6,   6,   9,           0,           0,           0                 
   6,   6,  10,           0,           0,           0                 
   6,   6,  11,           0,           0,           0                 
   6,   6,  12,           0,           0,           0                 
   6,   6,  13,           0,           0,           0                 
   6,   6,  14,           0,           0,           0                 
   6,   6,  15,           0,           0,           0                 
   6,   6,  16,           0,           0,           0                 
   6,   6,  17,           0,           0,           0                 
   6,   6,  18,           0,           0,           0                 
   6,   6,  19,           0,           0,           0                 
   6,   6,  20,           0,           0,           0                 
   6,   6,  21,           0,           0,           0                 
   6,   6,  22,           0,           0,           0                 
   6,   6,  23,           0,           0,           0                 
   6,   6,  24,           0,           0,           0                 
   6,   7,   1,           0,           0,           0                 
   6,   7,   2,           0,           0,           0                 
   6,   7,   3,           0,           0,           0                 
   6,   7,   4,           0,           0,           0                 
   6,   7,   5,           0,           0,           0                 
   6,   7,   6,           0,           0,           0                 
   6,   7,   7,           0,           0,           0                 
   6,   7,   8,           0,           0,           0                 
   6,   7,   9,           0,           0,           0                 
   6,   7,  10,           0,           0,           0                 
   6,   7,  11,           0,           0,           0                 
   6,   7,  12,           0,           0,           0                 
   6,   7,  13,           0,           0,           0                 
   6,   7,  14,           0,           0,           0                 
   6,   7,  15,           0,           0,           0                 
   6,   7,  16,           0,           0,           0                 
   6,   7,  17,           0,           0,           0                 
   6,   7,  18,           0,           0,           0                 
   6,   7,  19,           0,           0,           0                 
   6,   7,  20,           0,           0,           0                 
   6,   7,  21,           0,           0,           0                 
   6,   7,  22,           0,           0,           0                 
   6,   7,  23,           0,           0,           0                 
   6,   7,  24,           0,           0,           0                 
   7,   1,   1,           0,           0,           0                 
   7,   1,   2,           0,           0,           0                 
   7,   1,   3,           0,           0,           0                 
   7,   1,   4,           0,           0,           0                 
   7,   1,   5,           0,           0,           0                 
   7,   1,   6,           0,           0,           0                 
   7,   1,   7,           0,           0,           0                 
   7,   1,   8,           0,           0,           0                 
   7,   1,   9,           0,           0,           0                 
   7,   1,  10,           0,           0,           0                 
   7,   1,  11,           0,           0,           0                 
   7,   1,  12,           0,           0,           0                 
   7,   1,  13,           0,           0,           0                 
   7,   1,  14,           0,           0,           0                 
   7,   1,  15,           0,           0,           0                 
   7,   1,  16,           0,           0,           0                 
   7,   1,  17,           0,           0,           0                 
   7,   1,  18,           0,           0,           0                 
   7,   1,  19,           0,           0,           0                 
   7,   1,  20,           0,           0,           0                 
   7,   1,  21,           0,           0,           0                 
   7,   1,  22,           0,           0,           0                 
   7,   1,  23,           0,           0,           0                 
   7,   1,  24,           0,           0,           0                 
   7,   2,   1,           0,           0,           0                 
   7,   2,   2,           0,           0,           0                 
   7,   2,   3,           0,           0,           0                 
   7,   2,   4,           0,           0,           0                 
   7,   2,   5,           0,           0,           0                 
   7,   2,   6,           0,           0,           0                 
   7,   2,   7,           0,           0,           0                 
   7,   2,   8,           0,           0,           0                 
   7,   2,   9,           0,           0,           0                 
   7,   2,  10,           0,           0,           0                 
   7,   2,  11,           0,           0,           0                 
   7,   2,  12,           0,           0,           0                 
   7,   2,  13,           0,           0,           0                 
   7,   2,  14,           0,           0,           0                 
   7,   2,  15,           0,           0,           0                 
   7,   2,  16,           0,           0,           0                 
   7,   2,  17,           0,           0,           0                 
   7,   2,  18,           0,           0,           0                 
   7,   2,  19,           0,           0,           0                 
   7,   2,  20,           0,           0,           0                 
   7,   2,  21,           0,           0,           0                 
   7,   2,  22,           0,           0,           0                 
   7,   2,  23,           0,           0,           0                 
   7,   2,  24,           0,           0,           0                 
   7,   3,   1,           0,           0,           0                 
   7,   3,   2,           0,           0,           0                 
   7,   3,   3,           0,           0,           0                 
   7,   3,   4,           0,           0,           0                 
   7,   3,   5,           0,           0,           0                 
   7,   3,   6,           0,           0,           0                 
   7,   3,   7,           0,           0,           0                 
   7,   3,   8,           0,           0,           0                 
   7,   3,   9,           0,           0,           0                 
   7,   3,  10,           0,           0,           0                 
   7,   3,  11,           0,           0,           0                 
   7,   3,  12,           0,           0,           0                 
   7,   3,  13,           0,           0,           0                 
   7,   3,  14,           0,           0,           0                 
   7,   3,  15,           0,           0,           0                 
   7,   3,  16,           0,           0,           0                 
   7,   3,  17,           0,           0,           0                 
   7,   3,  18,           0,           0,           0                 
   7,   3,  19,           0,           0,           0                 
   7,   3,  20,           0,           0,           0                 
   7,   3,  21,           0,           0,           0                 
   7,   3,  22,           0,           0,           0                 
   7,   3,  23,           0,           0,           0                 
   7,   3,  24,           0,           0,           0                 
   7,   4,   1,           0,           0,           0                 
   7,   4,   2,           0,           0,           0                 
   7,   4,   3,           0,           0,           0                 
   7,   4,   4,           0,           0,           0                 
   7,   4,   5,           0,           0,           0                 
   7,   4,   6,           0,           0,           0                 
   7,   4,   7,           0,           0,           0                 
   7,   4,   8,           0,           0,           0                 
   7,   4,   9,           0,           0,           0                 
   7,   4,  10,           0,           0,           0                 
   7,   4,  11,           0,           0,           0                 
   7,   4,  12,           0,           0,           0                 
   7,   4,  13,           0,           0,           0                 
   7,   4,  14,           0,           0,           0                 
   7,   4,  15,           0,           0,           0                 
   7,   4,  16,           0,           0,           0                 
   7,   4,  17,           0,           0,           0                 
   7,   4,  18,           0,           0,           0                 
   7,   4,  19,           0,           0,           0                 
   7,   4,  20,           0,           0,           0                 
   7,   4,  21,           0,           0,           0                 
   7,   4,  22,           0,           0,           0                 
   7,   4,  23,           0,           0,           0                 
   7,   4,  24,           0,           0,           0                 
   7,   5,   1,           0,           0,           0                 
   7,   5,   2,           0,           0,           0                 
   7,   5,   3,           0,           0,           0                 
   7,   5,   4,           0,           0,           0                 
   7,   5,   5,           0,           0,           0                 
   7,   5,   6,           0,           0,           0                 
   7,   5,   7,           0,           0,           0                 
   7,   5,   8,           0,           0,           0                 
   7,   5,   9,           0,           0,           0                 
   7,   5,  10,           0,           0,           0                 
   7,   5,  11,           0,           0,           0                 
   7,   5,  12,           0,           0,           0                 
   7,   5,  13,           0,           0,           0                 
   7,   5,  14,           0,           0,           0                 
   7,   5,  15,           0,           0,           0                 
   7,   5,  16,           0,           0,           0                 
   7,   5,  17,           0,           0,           0                 
   7,   5,  18,           0,           0,           0                 
   7,   5,  19,           0,           0,           0                 
   7,   5,  20,           0,           0,           0                 
   7,   5,  21,           0,           0,           0                 
   7,   5,  22,           0,           0,           0                 
   7,   5,  23,           0,           0,           0                 
   7,   5,  24,           0,           0,           0                 
   7,   6,   1,           0,           0,           0                 
   7,   6,   2,           0,           0,           0                 
   7,   6,   3,           0,           0,           0                 
   7,   6,   4,           0,           0,           0                 
   7,   6,   5,           0,           0,           0                 
   7,   6,   6,           0,           0,           0                 
   7,   6,   7,           0,           0,           0                 
   7,   6,   8,           0,           0,           0                 
   7,   6,   9,           0,           0,           0                 
   7,   6,  10,           0,           0,           0                 
   7,   6,  11,           0,           0,           0                 
   7,   6,  12,           0,           0,           0                 
   7,   6,  13,           0,           0,           0                 
   7,   6,  14,           0,           0,           0                 
   7,   6,  15,           0,           0,           0                 
   7,   6,  16,           0,           0,           0                 
   7,   6,  17,           0,           0,           0                 
   7,   6,  18,           0,           0,           0                 
   7,   6,  19,           0,           0,           0                 
   7,   6,  20,           0,           0,           0                 
   7,   6,  21,           0,           0,           0                 
   7,   6,  22,           0,           0,           0                 
   7,   6,  23,           0,           0,           0                 
   7,   6,  24,           0,           0,           0                 
   7,   7,   1,           0,           0,           0                 
   7,   7,   2,           0,           0,           0                 
   7,   7,   3,           0,           0,           0                 
   7,   7,   4,           0,           0,           0                 
   7,   7,   5,           0,           0,           0                 
   7,   7,   6,           0,           0,           0                 
   7,   7,   7,           0,           0,           0                 
   7,   7,   8,           0,           0,           0                 
   7,   7,   9,           0,           0,           0                 
   7,   7,  10,           0,           0,           0                 
   7,   7,  11,           0,           0,           0                 
   7,   7,  12,           0,           0,           0                 
   7,   7,  13,           0,           0,           0                 
   7,   7,  14,           0,           0,           0                 
   7,   7,  15,           0,           0,           0                 
   7,   7,  16,           0,           0,           0                 
   7,   7,  17,           0,           0,           0                 
   7,   7,  18,           0,           0,           0                 
   7,   7,  19,           0,           0,           0                 
   7,   7,  20,           0,           0,           0                 
   7,   7,  21,           0,           0,           0                 
   7,   7,  22,           0,           0,           0                 
   7,   7,  23,           0,           0,           0                 
   7,   7,  24,           0,           0,           0                 
