#TITLE,sddp.dat
#JSONMENU, menu.json
#Files, 1000
.dashresults\dsh_cashflow_section*.csv,   WATERFALL, dashgraf1
.dashresults\dsh_cashflow_percents*.csv,  LINE_AREA, dashgraf1
.dashresults\dsh_cashflow_distr_vpn*.csv, LINE, dashgraf2
.dashresults\dsh_cashflow_distr_tir*.csv, LINE, dashgraf3

