[
	{ label: 'Cash Flow'  , page: 'dashgraf1.html', node: true, icon:"fa-bar-chart-o" },
	{ label: 'NPV', page: 'dashgraf2.html', node: true, icon:"fa-line-chart" },
	{ label: 'IIR', page: 'dashgraf3.html', node: true, icon:"fa-line-chart" },
]