Varies per block?       ,    1,Unit    ,    MWh,     5,     1,  2021  
Varies per sequence?    ,    1                                        
# of agents             ,    4                                        
Stag,Seq.,Blck,VR 1 - 1    ,VR 1 - 2    ,VR 2 - 1    ,VR 3 - 1        
   1,   1,   1,          50,           0,           0,           0    
   1,   2,   1,          50,           0,           0,           0    
   1,   3,   1,          50,           0,           0,           0    
   1,   4,   1,          50,           0,           0,           0    
   1,   5,   1,          50,           0,           0,           0    
   1,   6,   1,          50,           0,           0,           0    
   1,   7,   1,          50,           0,           0,           0    
   2,   1,   1,          50,           0,           0,           0    
   2,   2,   1,          50,           0,           0,           0    
   2,   3,   1,          50,           0,           0,           0    
   2,   4,   1,          50,           0,           0,           0    
   2,   5,   1,          50,           0,           0,           0    
   2,   6,   1,          50,           0,           0,           0    
   2,   7,   1,          50,           0,           0,           0    
   3,   1,   1,          50,           0,           0,           0    
   3,   2,   1,          50,           0,           0,           0    
   3,   3,   1,          50,           0,           0,           0    
   3,   4,   1,          50,           0,           0,           0    
   3,   5,   1,          50,           0,           0,           0    
   3,   6,   1,          50,           0,           0,           0    
   3,   7,   1,          50,           0,           0,           0    
   4,   1,   1,          50,           0,           0,           0    
   4,   2,   1,          50,           0,           0,           0    
   4,   3,   1,          50,           0,           0,           0    
   4,   4,   1,          50,           0,           0,           0    
   4,   5,   1,          50,           0,           0,           0    
   4,   6,   1,          50,           0,           0,           0    
   4,   7,   1,          50,           0,           0,           0    
   5,   1,   1,          50,           0,           0,           0    
   5,   2,   1,          50,           0,           0,           0    
   5,   3,   1,          50,           0,           0,           0    
   5,   4,   1,          50,           0,           0,           0    
   5,   5,   1,          50,           0,           0,           0    
   5,   6,   1,          50,           0,           0,           0    
   5,   7,   1,          50,           0,           0,           0    
   6,   1,   1,          50,           0,           0,           0    
   6,   2,   1,          50,           0,           0,           0    
   6,   3,   1,          50,           0,           0,           0    
   6,   4,   1,          50,           0,           0,           0    
   6,   5,   1,          50,           0,           0,           0    
   6,   6,   1,          50,           0,           0,           0    
   6,   7,   1,          50,           0,           0,           0    
   7,   1,   1,          50,           0,           0,           0    
   7,   2,   1,          50,           0,           0,           0    
   7,   3,   1,          50,           0,           0,           0    
   7,   4,   1,          50,           0,           0,           0    
   7,   5,   1,          50,           0,           0,           0    
   7,   6,   1,          50,           0,           0,           0    
   7,   7,   1,          50,           0,           0,           0    
