﻿Varies per block?       ,1,Unit    ,$/MWh,5,9,2022,,,,,,,,,,,,,,,,,,,,,,,,,,,,,,,,,,,,,,,,,,,,,,,,,
Varies per sequence?    ,1,,,,,,,,,,,,,,,,,,,,,,,,,,,,,,,,,,,,,,,,,,,,,,,,,,,,,,
# of agents             ,53,,,,,,,,,,,,,,,,,,,,,,,,,,,,,,,,,,,,,,,,,,,,,,,,,,,,,,
Stag,Scn.,Blck,VR 1 - 1,VR 1 - 2,VR 1 - 3,VR 1 - 4,VR 1 - 5,VR 1 - 6,VR 1 - 7,VR 1 - 8,VR 1 - 9,VR 1 - 10,VR 1 - 11,VR 1 - 12,VR 1 - 13,VR 1 - 14,VR 1 - 15,VR 1 - 16,VR 1 - 17,VR 1 - 18,VR 2 - 1,VR 2 - 2,VR 2 - 3,VR 2 - 4,VR 2 - 5,VR 2 - 6,VR 2 - 7,VR 2 - 8,VR 2 - 9,VR 2 - 10,VR 2 - 11,VR 2 - 12,VR 3 - 1,VR 3 - 2,VR 3 - 3,VR 3 - 4,VR 3 - 5,VR 3 - 6,VR 3 - 7,VR 3 - 8,VR 3 - 9,VR 3 - 10,VR 3 - 11,VR 3 - 12,VR 4 - 1,VR 4 - 2,VR 4 - 3,VR 4 - 4,VR 4 - 5,VR 4 - 6,VR 4 - 7,VR 4 - 8,VR 4 - 9,VR 4 - 10,VR 4 - 11
1,1,1,537.3949,413.4276,297.1865,269.882,210.4272,200.3608,193.0161,182.0329,176.9171,156.2797,148.4483,124.908,115.2606,93.4167,66.9487,46.2091,24.4762,12.74,329.6113,190.2941,157.543,154.3892,139.5994,138.422,124.9983,111.8307,93.1151,72.4731,66.9859,12.74,448.1198,403.6308,320.2422,229.1126,210.5975,196.5634,174.7651,154.4348,152.4772,142.061,117.7253,12.74,427.896,401.314,300.4646,218.0963,166.6872,162.823,141.3511,124.8537,102.7211,102.0323,12.74
1,2,1,537.3949,413.4276,297.1865,269.882,210.4272,200.3608,193.0161,182.0329,176.9171,156.2797,148.4483,124.908,115.2606,93.4167,66.9487,46.2091,24.4762,12.74,329.6113,190.2941,157.543,154.3892,139.5994,138.422,124.9983,111.8307,93.1151,72.4731,66.9859,12.74,448.1198,403.6308,320.2422,229.1126,210.5975,196.5634,174.7651,154.4348,152.4772,142.061,117.7253,12.74,427.896,401.314,300.4646,218.0963,166.6872,162.823,141.3511,124.8537,102.7211,102.0323,12.74
1,3,1,537.3949,413.4276,297.1865,269.882,210.4272,200.3608,193.0161,182.0329,176.9171,156.2797,148.4483,124.908,115.2606,93.4167,66.9487,46.2091,24.4762,12.74,329.6113,190.2941,157.543,154.3892,139.5994,138.422,124.9983,111.8307,93.1151,72.4731,66.9859,12.74,448.1198,403.6308,320.2422,229.1126,210.5975,196.5634,174.7651,154.4348,152.4772,142.061,117.7253,12.74,427.896,401.314,300.4646,218.0963,166.6872,162.823,141.3511,124.8537,102.7211,102.0323,12.74
1,4,1,537.3949,413.4276,297.1865,269.882,210.4272,200.3608,193.0161,182.0329,176.9171,156.2797,148.4483,124.908,115.2606,93.4167,66.9487,46.2091,24.4762,12.74,329.6113,190.2941,157.543,154.3892,139.5994,138.422,124.9983,111.8307,93.1151,72.4731,66.9859,12.74,448.1198,403.6308,320.2422,229.1126,210.5975,196.5634,174.7651,154.4348,152.4772,142.061,117.7253,12.74,427.896,401.314,300.4646,218.0963,166.6872,162.823,141.3511,124.8537,102.7211,102.0323,12.74
1,5,1,537.3949,413.4276,297.1865,269.882,210.4272,200.3608,193.0161,182.0329,176.9171,156.2797,148.4483,124.908,115.2606,93.4167,66.9487,46.2091,24.4762,12.74,329.6113,190.2941,157.543,154.3892,139.5994,138.422,124.9983,111.8307,93.1151,72.4731,66.9859,12.74,448.1198,403.6308,320.2422,229.1126,210.5975,196.5634,174.7651,154.4348,152.4772,142.061,117.7253,12.74,427.896,401.314,300.4646,218.0963,166.6872,162.823,141.3511,124.8537,102.7211,102.0323,12.74
1,6,1,537.3949,413.4276,297.1865,269.882,210.4272,200.3608,193.0161,182.0329,176.9171,156.2797,148.4483,124.908,115.2606,93.4167,66.9487,46.2091,24.4762,12.74,329.6113,190.2941,157.543,154.3892,139.5994,138.422,124.9983,111.8307,93.1151,72.4731,66.9859,12.74,448.1198,403.6308,320.2422,229.1126,210.5975,196.5634,174.7651,154.4348,152.4772,142.061,117.7253,12.74,427.896,401.314,300.4646,218.0963,166.6872,162.823,141.3511,124.8537,102.7211,102.0323,12.74
1,7,1,537.3949,413.4276,297.1865,269.882,210.4272,200.3608,193.0161,182.0329,176.9171,156.2797,148.4483,124.908,115.2606,93.4167,66.9487,46.2091,24.4762,12.74,329.6113,190.2941,157.543,154.3892,139.5994,138.422,124.9983,111.8307,93.1151,72.4731,66.9859,12.74,448.1198,403.6308,320.2422,229.1126,210.5975,196.5634,174.7651,154.4348,152.4772,142.061,117.7253,12.74,427.896,401.314,300.4646,218.0963,166.6872,162.823,141.3511,124.8537,102.7211,102.0323,12.74
1,8,1,537.3949,413.4276,297.1865,269.882,210.4272,200.3608,193.0161,182.0329,176.9171,156.2797,148.4483,124.908,115.2606,93.4167,66.9487,46.2091,24.4762,12.74,329.6113,190.2941,157.543,154.3892,139.5994,138.422,124.9983,111.8307,93.1151,72.4731,66.9859,12.74,448.1198,403.6308,320.2422,229.1126,210.5975,196.5634,174.7651,154.4348,152.4772,142.061,117.7253,12.74,427.896,401.314,300.4646,218.0963,166.6872,162.823,141.3511,124.8537,102.7211,102.0323,12.74
1,9,1,537.3949,413.4276,297.1865,269.882,210.4272,200.3608,193.0161,182.0329,176.9171,156.2797,148.4483,124.908,115.2606,93.4167,66.9487,46.2091,24.4762,12.74,329.6113,190.2941,157.543,154.3892,139.5994,138.422,124.9983,111.8307,93.1151,72.4731,66.9859,12.74,448.1198,403.6308,320.2422,229.1126,210.5975,196.5634,174.7651,154.4348,152.4772,142.061,117.7253,12.74,427.896,401.314,300.4646,218.0963,166.6872,162.823,141.3511,124.8537,102.7211,102.0323,12.74
1,10,1,537.3949,413.4276,297.1865,269.882,210.4272,200.3608,193.0161,182.0329,176.9171,156.2797,148.4483,124.908,115.2606,93.4167,66.9487,46.2091,24.4762,12.74,329.6113,190.2941,157.543,154.3892,139.5994,138.422,124.9983,111.8307,93.1151,72.4731,66.9859,12.74,448.1198,403.6308,320.2422,229.1126,210.5975,196.5634,174.7651,154.4348,152.4772,142.061,117.7253,12.74,427.896,401.314,300.4646,218.0963,166.6872,162.823,141.3511,124.8537,102.7211,102.0323,12.74
1,11,1,537.3949,413.4276,297.1865,269.882,210.4272,200.3608,193.0161,182.0329,176.9171,156.2797,148.4483,124.908,115.2606,93.4167,66.9487,46.2091,24.4762,12.74,329.6113,190.2941,157.543,154.3892,139.5994,138.422,124.9983,111.8307,93.1151,72.4731,66.9859,12.74,448.1198,403.6308,320.2422,229.1126,210.5975,196.5634,174.7651,154.4348,152.4772,142.061,117.7253,12.74,427.896,401.314,300.4646,218.0963,166.6872,162.823,141.3511,124.8537,102.7211,102.0323,12.74
1,12,1,537.3949,413.4276,297.1865,269.882,210.4272,200.3608,193.0161,182.0329,176.9171,156.2797,148.4483,124.908,115.2606,93.4167,66.9487,46.2091,24.4762,12.74,329.6113,190.2941,157.543,154.3892,139.5994,138.422,124.9983,111.8307,93.1151,72.4731,66.9859,12.74,448.1198,403.6308,320.2422,229.1126,210.5975,196.5634,174.7651,154.4348,152.4772,142.061,117.7253,12.74,427.896,401.314,300.4646,218.0963,166.6872,162.823,141.3511,124.8537,102.7211,102.0323,12.74
